<svg width="340" height="283" version="1.1" viewBox="0 0 340 283" xmlns="http://www.w3.org/2000/svg" xmlns:xlink="http://www.w3.org/1999/xlink">
 <defs>
  <filter id="hc" x="-.0061708" y="-.0058384" width="1.0123" height="1.0117" color-interpolation-filters="sRGB">
   <feGaussianBlur stdDeviation="1.4349239"/>
  </filter>
  <linearGradient id="hq" x1="112.8" x2="359.44" y1="242.17" y2="-31.919" gradientTransform="matrix(.59867 0 0 .59867 -244.8 -211.88)" gradientUnits="userSpaceOnUse">
   <stop stop-color="#1ba2b1" stop-opacity=".60455" offset="0"/>
   <stop stop-color="#168997" stop-opacity="0" offset="1"/>
  </linearGradient>
  <filter id="hw" color-interpolation-filters="sRGB">
   <feFlood flood-color="rgb(0,0,0)" flood-opacity=".35686" result="flood"/>
   <feComposite in="flood" in2="SourceGraphic" operator="in" result="composite1"/>
   <feGaussianBlur in="composite1" result="blur" stdDeviation="1.5"/>
   <feOffset dx="1" dy="1" result="offset"/>
   <feComposite in="SourceGraphic" in2="offset" result="composite2"/>
  </filter>
  <linearGradient id="hp" x1="68.192" x2="68.192" y1="221.96" y2="241.78" gradientTransform="matrix(2.1933 0 0 2.1933 .26131 -651.61)" gradientUnits="userSpaceOnUse">
   <stop offset="0"/>
   <stop stop-color="#fff" offset="1"/>
  </linearGradient>
  <mask id="ho" maskUnits="userSpaceOnUse">
   <rect transform="scale(1,-1)" x=".26131" y="-164.43" width="197.31" height="164.23" fill="url(#hp)"/>
  </mask>
 </defs>
 <g transform="translate(0 -222.12)">
  <g transform="matrix(1.7232 0 0 1.7232 -.45028 221.78)" enable-background="new" mask="url(#ho)">
   <g transform="translate(0 -61.119)">
    <rect y="61.119" width="198.44" height="165.36" fill="#fff" style="paint-order:stroke fill markers"/>
   </g>
   <g transform="translate(0 -61.119)">
    <rect transform="scale(-1)" x="-206.02" y="-230.95" width="222.26" height="173.74" fill="url(#hq)" fill-rule="evenodd" style="paint-order:stroke fill markers"/>
   </g>
   <g transform="translate(13.086 -113.99)" fill="#fff">
    <path d="m153.31 106.27 77.783 45.288-77.877 45.125-77.877-45.288z" fill-opacity=".1982"/>
    <path d="m62.301 113.99 64.912 37.541-77.877 45.125-65.006-37.541z" fill-opacity=".1982"/>
    <path d="m49.323 106.39 12.932 7.6295-77.877 45.125-13.027-7.6295z" fill-opacity=".37838"/>
    <path d="m36.391 98.921 12.932 7.6295-77.877 45.125-13.027-7.6296z" fill-opacity=".54955"/>
    <path d="m23.364 91.291 12.932 7.6295-77.877 45.125-13.027-7.6295z" fill-opacity=".6982"/>
    <path d="m10.431 83.824 12.932 7.6295-77.877 45.125-13.027-7.6295z" fill-opacity=".86036"/>
    <path d="m-2.501 76.195 12.932 7.6295-77.877 45.125-13.027-7.6295z"/>
    <path d="m231.15 106.38 77.783 45.288-77.877 45.125-77.877-45.288z" fill-opacity=".1982"/>
    <path d="m-54.395 106.23 77.783 45.288-77.877 45.125-77.877-45.288z" fill-opacity=".1982"/>
   </g>
   <g transform="translate(0 -61.119)" opacity=".8" stroke-width="1.1541" style="mix-blend-mode:screen">
    <g id="ha" transform="matrix(2.9866 0 0 2.9866 -364.65 -77.684)" stroke-width="1.1541">
     <path transform="scale(.26458)" d="m425.51 194.58 13.094 7.56" fill="none" stroke="#0ff" stroke-width=".27483"/>
     <path transform="scale(.26458)" d="m445.15 205.92 13.093 7.5588" fill="none" stroke="#0ff" stroke-width=".27483"/>
     <path transform="scale(.26458)" d="m425.51 213.48 13.094-7.56" fill="none" stroke="#0ff" stroke-width=".27483"/>
     <path transform="scale(.26458)" d="m445.15 202.14 13.093-7.5588" fill="none" stroke="#0ff" stroke-width=".27483"/>
     <circle cx="116.91" cy="53.983" r=".18678" fill="#0ff" fill-rule="evenodd" opacity="1" style="paint-order:stroke fill markers"/>
    </g>
    <use transform="translate(25.959)" xlink:href="#ha"/>
    <use transform="translate(25.959 15.096)" xlink:href="#ha"/>
    <use transform="translate(25.959 30.192)" xlink:href="#ha"/>
    <use transform="translate(25.959 45.288)" xlink:href="#ha"/>
    <use transform="translate(25.959 60.385)" xlink:href="#ha"/>
    <use transform="translate(25.959 75.481)" xlink:href="#ha"/>
    <use transform="translate(25.959 90.577)" xlink:href="#ha"/>
    <use transform="translate(25.959 105.67)" xlink:href="#ha"/>
    <use transform="translate(25.959 120.77)" xlink:href="#ha"/>
    <use transform="translate(25.959 135.87)" xlink:href="#ha"/>
    <use transform="translate(51.918)" xlink:href="#ha"/>
    <use transform="translate(51.918 15.096)" xlink:href="#ha"/>
    <use transform="translate(51.918 30.192)" xlink:href="#ha"/>
    <use transform="translate(51.918 45.288)" xlink:href="#ha"/>
    <use transform="translate(51.918 60.385)" xlink:href="#ha"/>
    <use transform="translate(51.918 75.481)" xlink:href="#ha"/>
    <use transform="translate(51.918 90.577)" xlink:href="#ha"/>
    <use transform="translate(51.918 105.67)" xlink:href="#ha"/>
    <use transform="translate(51.918 120.77)" xlink:href="#ha"/>
    <use transform="translate(51.918 135.87)" xlink:href="#ha"/>
    <use transform="translate(77.877)" xlink:href="#ha"/>
    <use transform="translate(77.877 15.096)" xlink:href="#ha"/>
    <use transform="translate(77.877 30.192)" xlink:href="#ha"/>
    <use transform="translate(77.877 45.288)" xlink:href="#ha"/>
    <use transform="translate(77.877 60.385)" xlink:href="#ha"/>
    <use transform="translate(77.877 75.481)" xlink:href="#ha"/>
    <use transform="translate(77.877 90.577)" xlink:href="#ha"/>
    <use transform="translate(77.877 105.67)" xlink:href="#ha"/>
    <use transform="translate(77.877 120.77)" xlink:href="#ha"/>
    <use transform="translate(77.877 135.87)" xlink:href="#ha"/>
    <use transform="translate(103.84)" xlink:href="#ha"/>
    <use transform="translate(103.84 15.096)" xlink:href="#ha"/>
    <use transform="translate(103.84 30.192)" xlink:href="#ha"/>
    <use transform="translate(103.84 45.288)" xlink:href="#ha"/>
    <use transform="translate(103.84 60.385)" xlink:href="#ha"/>
    <use transform="translate(103.84 75.481)" xlink:href="#ha"/>
    <use transform="translate(103.84 90.577)" xlink:href="#ha"/>
    <use transform="translate(103.84 105.67)" xlink:href="#ha"/>
    <use transform="translate(103.84 120.77)" xlink:href="#ha"/>
    <use transform="translate(103.84 135.87)" xlink:href="#ha"/>
    <use transform="translate(129.8)" xlink:href="#ha"/>
    <use transform="translate(129.8 15.096)" xlink:href="#ha"/>
    <use transform="translate(129.8 30.192)" xlink:href="#ha"/>
    <use transform="translate(129.8 45.288)" xlink:href="#ha"/>
    <use transform="translate(129.8 60.385)" xlink:href="#ha"/>
    <use transform="translate(129.8 75.481)" xlink:href="#ha"/>
    <use transform="translate(129.8 90.577)" xlink:href="#ha"/>
    <use transform="translate(129.8 105.67)" xlink:href="#ha"/>
    <use transform="translate(129.8 120.77)" xlink:href="#ha"/>
    <use transform="translate(129.8 135.87)" xlink:href="#ha"/>
    <use transform="translate(155.75)" xlink:href="#ha"/>
    <use transform="translate(155.75 15.096)" xlink:href="#ha"/>
    <use transform="translate(155.75 30.192)" xlink:href="#ha"/>
    <use transform="translate(155.75 45.288)" xlink:href="#ha"/>
    <use transform="translate(155.75 60.385)" xlink:href="#ha"/>
    <use transform="translate(155.75 75.481)" xlink:href="#ha"/>
    <use transform="translate(155.75 90.577)" xlink:href="#ha"/>
    <use transform="translate(155.75 105.67)" xlink:href="#ha"/>
    <use transform="translate(155.75 120.77)" xlink:href="#ha"/>
    <use transform="translate(155.75 135.87)" xlink:href="#ha"/>
    <use transform="translate(181.71)" xlink:href="#ha"/>
    <use transform="translate(181.71 15.096)" xlink:href="#ha"/>
    <use transform="translate(181.71 30.192)" xlink:href="#ha"/>
    <use transform="translate(181.71 45.288)" xlink:href="#ha"/>
    <use transform="translate(181.71 60.385)" xlink:href="#ha"/>
    <use transform="translate(181.71 75.481)" xlink:href="#ha"/>
    <use transform="translate(181.71 90.577)" xlink:href="#ha"/>
    <use transform="translate(181.71 105.67)" xlink:href="#ha"/>
    <use transform="translate(181.71 120.77)" xlink:href="#ha"/>
    <use transform="translate(181.71 135.87)" xlink:href="#ha"/>
    <use transform="translate(207.67)" xlink:href="#ha"/>
    <use transform="translate(207.67 15.096)" xlink:href="#ha"/>
    <use transform="translate(207.67 30.192)" xlink:href="#ha"/>
    <use transform="translate(207.67 45.288)" xlink:href="#ha"/>
    <use transform="translate(207.67 60.385)" xlink:href="#ha"/>
    <use transform="translate(207.67 75.481)" xlink:href="#ha"/>
    <use transform="translate(207.67 90.577)" xlink:href="#ha"/>
    <use transform="translate(207.67 105.67)" xlink:href="#ha"/>
    <use transform="translate(207.67 120.77)" xlink:href="#ha"/>
    <use transform="translate(207.67 135.87)" xlink:href="#ha"/>
    <use transform="translate(25.959 -14.933)" xlink:href="#ha"/>
    <use transform="translate(51.918 -14.933)" xlink:href="#ha"/>
    <use transform="translate(77.877 -14.933)" xlink:href="#ha"/>
    <use transform="translate(103.84 -14.933)" xlink:href="#ha"/>
    <use transform="translate(129.8 -14.933)" xlink:href="#ha"/>
    <use transform="translate(155.75 -14.933)" xlink:href="#ha"/>
    <use transform="translate(181.71 -14.933)" xlink:href="#ha"/>
    <use transform="translate(207.67 -14.933)" xlink:href="#ha"/>
    <use transform="translate(25.959 -29.915)" xlink:href="#ha"/>
    <use transform="translate(51.918 -29.915)" xlink:href="#ha"/>
    <use transform="translate(77.877 -29.915)" xlink:href="#ha"/>
    <use transform="translate(103.84 -29.915)" xlink:href="#ha"/>
    <use transform="translate(129.8 -29.915)" xlink:href="#ha"/>
    <use transform="translate(155.75 -29.915)" xlink:href="#ha"/>
    <use transform="translate(181.71 -29.915)" xlink:href="#ha"/>
    <use transform="translate(207.67 -29.915)" xlink:href="#ha"/>
   </g>
   <g transform="translate(0 -61.119)">
    <g transform="matrix(1.2127 0 0 1.2127 78.58 -116.15)">
     <path transform="matrix(.11901 0 0 .11901 17.972 67.441)" d="m437.79 877.12c-3.9283 0-3.6961 6.0091-17.561 6.0091-30.964 0-30.74 25.96-22.113 25.96 1.5405 0 1.7713-1.0761 1.7713-1.0761-5.6229 0-6.3865-23.037 20.341-23.037 1.3865 0 2.615 8.4e-4 3.8474-0.0756-3.4662 3.5432-5.6999 10.944-7.8566 19.494-2.6189 0.23107-5.1588 0.38062-7.1614 0.38062-1.3095 0-1.6951-0.45708-1.6951-0.45708-1.3864 0-1.4629 3.6949 1.6951 3.6949 1.7716 0 4.0784-0.31004 6.4662-0.69486-4.2364 18.332-8.3137 40.283-21.408 40.283-15.02 0-9.0924-28.417 5.5425-28.417 0 0-0.23206-1.857-2.5426-1.857-14.635 0-21.41 32.969-2.076 32.969 17.1 0 21.718-24.721 25.646-43.978 2.3878-0.38482 4.5448-0.77131 6.0853-0.77131 1.9256 0 1.9242-1.8475 0.99993-1.8475-1.9257 0-4.2308 0.14955-6.6186 0.38061 2.0797-10.09 4.0832-18.249 7.7804-19.789 9.9363-2.0026 11.938-7.171 8.8565-7.171zm-211.27 4.6282c-17.562 0-12.866 47.445-25.96 62.234-4.6986-1.6945-9.0108-2.8474-12.323-2.8474-8.0877 0-8.4667 9.2374 2.9331 9.2374 3.8513 0 7.1605-0.9996 9.8564-2.7712 10.013 4.9296 21.72 12.247 31.503 12.247 10.013 0 10.865-8.7804 8.3232-8.7804 0 0-1.3153 4.2379-7.3233 4.2379-6.7013 0-18.719-5.9352-29.503-10.095 15.79-15.405 11.711-59.92 24.189-59.92 2.0027 0 2.7713 0.77132 2.7713 0.77132s0.4632-4.314-4.4663-4.314zm316.85 0c-5.6229 0-15.789 30.575-15.789 53.606 0 9.7822 2.388 17.256 8.7042 17.256 4.5445 0 7.4732-6.9365 7.7042-7.4757 0.1541-0.61587-1.31-0.84727-1.6951 0-0.69327 1.5405-3.076 4.933-5.6948 4.933-2.927 0-4.4664-5.1592-4.4664-11.475 0-25.573 12.552-55.31 12.552-55.31 0-1.0013-0.39003-1.5332-1.3142-1.5332zm-306.76 1.8476c-3.9283 0-6.4757 7.009-6.4757 17.484 0 1.1554 2.6951 1.3884 2.6951 0.69485 0-10.938 5.6282-16.18 5.6282-16.18 0-1.2324-0.84616-1.9999-1.8475-1.9999zm197.71 15.866c-3.9283 0-6.4758 7.086-6.4758 17.484 0 1.1554 2.7046 1.4646 2.7046 0.77131 0-10.938 5.6186-16.256 5.6186-16.256 0-1.2323-0.92314-1.9998-1.8475-1.9998zm-107.96 1.9998c-7.5485 0-16.716 15.867-21.646 27.112h-0.53328c1.5405-11.785 5.0854-23.027 5.0854-23.027 0-1.0783-0.46514-1.6951-1.4666-1.6951-4.5445 0-7.9328 15.41-7.9328 30.122 0 4.1594 0.5322 6.0853 2.3808 6.0853 0.61622 0 1.0856-0.47135 1.0856-0.9333 0-4.4675 10.708-26.489 18.18-33.036-2.1567 5.1607-1.9329 13.17 1.5332 13.17 0.23114 0 0.39053-0.23357 0.39053-0.61923 0-10.784 4.6949-15.561 4.6949-15.561 0-0.84735-0.69292-1.619-1.7713-1.619zm137.09 0c-7.5485 0-16.707 15.867-21.637 27.112h-0.54278c1.5405-11.785 5.0854-23.027 5.0854-23.027 0-1.0783-0.46515-1.6951-1.4666-1.6951-4.5445 0-7.9328 15.41-7.9328 30.122 0 4.1594 0.54168 6.0853 2.3903 6.0853 0.6162 0 1.0761-0.47135 1.0761-0.9333 0-4.4675 10.708-26.489 18.18-33.036-2.1567 5.1607-1.9234 13.17 1.5428 13.17 0.23114 0 0.38079-0.23357 0.38079-0.61923 0-10.784 4.7044-15.561 4.7044-15.561 0-0.84735-0.7025-1.619-1.7808-1.619zm-182.11 1.8476c-16.946 0-26.573 38.054-13.171 38.054 3.8513 0 10.015-8.7024 14.713-16.713h0.77132c-0.53917 3.3892-0.84751 7.0118-0.84751 10.247 0 8.3187 2.1598 15.094 6.7043 15.094 3.081 0 4.9234-5.8568 4.9234-5.8568s0.23694-0.84753-0.53328-0.84753c-0.84728 0-1.0762 0.84753-1.0762 0.84753s-0.92876 3.2379-3.0855 3.2379c-1.5405 0-2.3903-1.9993-2.3903-8.1613 0-17.254 6.3996-30.579 6.3996-30.579 0-1.0783-0.54227-1.7808-1.4666-1.7808-2.0797 0-3.8496 2.3169-5.3901 5.552-2.3878 4.6986-13.792 26.189-17.951 26.189-5.3918 0 1.5444-33.198 11.866-33.198 2.4648 0 3.3141 2.6189 3.3141 2.6189s0.22383 0.84752 1.5332 0.84752c1.0784 0 1.3142-1.3142 1.3142-1.3142s-1.2377-4.2378-5.6282-4.2378zm55.682 0.54278c-4.6216 0-8.009 15.41-8.009 30.122 0 4.1594 0.60839 6.0853 2.457 6.0853 0.61612 0 1.0856-0.47135 1.0856-0.9333 0-1.3864 8.3198-23.796 16.485-30.96 1.2324-1.0013 2.308-0.69737 1.9999 0.38062-0.92433 3.5432-3.3141 13.559-3.3141 23.341 0 8.7038 2.2323 15.094 6.2377 15.094 2.3878 0 4.0092-3.3046 4.0092-3.3046s0.30373-0.77132-0.46666-0.77132c-0.7703 0-1.306 1.4571-2.9236 1.4571-1.4635 0-2.3903-2.0763-2.3903-8.1613 0-12.632 5.0853-28.112 5.0853-28.112 0-2.3108-1.1601-3.7712-3.9331-3.7712-8.0877 0-15.25 14.325-19.332 24.57h-0.6952c1.5405-11.862 5.0854-23.341 5.0854-23.341 0-1.0783-0.45641-1.695-1.3808-1.695zm-85.118 0.15208c-18.563 0-29.651 39.826-9.0851 39.826 7.5486 0 11.856-9.0088 11.856-9.0088s0.23156-0.61924-0.92378-0.61924c-1.1554 0-1.457 0.61924-1.457 0.61924s-3.3115 6.3138-8.7804 6.3138c-13.017 0-3.7742-35.207 7.8566-35.207 6.7012 0-1.0032 18.799-11.171 18.799 0 0 0.53413 1.5428 3.076 1.5428 13.788 0 19.874-22.265 8.628-22.265zm233.37 0c-18.563 0-29.66 39.826-9.0946 39.826 7.5486 0 11.866-9.0088 11.866-9.0088s0.23165-0.61924-0.92377-0.61924c-1.1554 0-1.4666 0.61924-1.4666 0.61924s-3.3115 6.3138-8.7803 6.3138c-13.017 0-3.7743-35.207 7.8566-35.207 6.7012 0-1.0033 18.799-11.171 18.799 0 0 0.5437 1.5428 3.0855 1.5428 13.788 0 19.874-22.265 8.628-22.265zm29.903 0c-18.563 0-29.66 39.826-9.0946 39.826 7.5485 0 11.866-9.0088 11.866-9.0088s0.23156-0.61924-0.92374-0.61924c-1.1554 0-1.4666 0.61924-1.4666 0.61924s-3.3115 6.3138-8.7803 6.3138c-13.017 0-3.7742-35.207 7.8566-35.207 6.7012 0-1.0033 18.799-11.171 18.799 0 0 0.54361 1.5428 3.0855 1.5428 13.788 0 19.874-22.265 8.628-22.265zm41.654 0c-6.8553 0-18.484 37.055-5.4663 37.055 4.2364 0 10.394-9.1718 15.247-17.799h0.69519c-0.53916 2.6189-1.072 5.3901-1.457 8.009-0.61622 3.3892-1.1629 7.2441-1.9332 11.018-12.247 0.46212-19.795 6.469-23.646 12.323-0.53917 0.77048 1.2321 1.3131 1.7714 0.54278 4.1593-5.7769 10.48-10.397 21.418-10.628-2.3108 10.63-6.4754 20.951-16.104 20.951-4.0824 0-5.773-1.5441-6.4662-3.1617-0.46221-1.0783-2.3858-0.53438-1.9237 0.46632 1.1554 2.4648 3.2291 4.4663 8.3899 4.4663 11.939 0 17.489-10.71 20.57-22.341 6.4702 1.6945 5.0092 7.5518 5.0092 7.5518 3.004 0 5.084-8.3246-4.3902-9.9422 0.84727-3.7742 1.536-7.618 2.1522-11.161 3.081-18.178 7.009-25.579 7.009-25.579 0-1.0783-0.46372-1.7713-1.6189-1.7713-1.9257 0-3.3847 1.7774-4.7711 4.7044-0.77022 1.6945-14.328 29.655-19.103 29.655-1.4635 0-1.8475-1.6993-1.8475-3.933 0-10.322 7.7804-28.731 7.7804-28.731 0-1.0014-0.23601-1.6951-1.3142-1.6951zm32.417 28.884c-4.0054 0-4.9243 9.0184-2.2285 9.0184 0 0 3.7712-5.2444 3.7712-7.2471 0-1.1554-0.46421-1.7713-1.5427-1.7713zm-401.78 10.171c3.004 0 6.555 1.2369 10.637 3.0854-2.0027 1.3865-4.237 2.2285-6.9328 2.2285-8.5498 0-7.8639-5.3139-3.7045-5.3139z" enable-background="new" fill="#fff" filter="url(#hc)" stroke-width="2.7782" style="font-feature-settings:normal;font-variant-caps:normal;font-variant-ligatures:normal;font-variant-numeric:normal"/>
     <path d="m69.718 171.83c-0.46753 0-0.43989 0.71518-2.09 0.71518-3.6852 0-3.6585 3.0896-2.6317 3.0896 0.18335 0 0.21081-0.12807 0.21081-0.12807-0.66921 0-0.76009-2.7417 2.4209-2.7417 0.16501 0 0.31122 1e-4 0.4579-9e-3 -0.41253 0.42169-0.67838 1.3025-0.93506 2.3201-0.31168 0.0275-0.61397 0.0453-0.85232 0.0453-0.15584 0-0.20175-0.0544-0.20175-0.0544-0.16501 0-0.17411 0.43976 0.20175 0.43976 0.21085 0 0.48539-0.0369 0.76958-0.0827-0.5042 2.1818-0.98945 4.7943-2.5479 4.7943-1.7876 0-1.0821-3.3821 0.65964-3.3821 0 0-0.02762-0.22101-0.30262-0.22101-1.7418 0-2.5481 3.9238-0.24708 3.9238 2.0351 0 2.5847-2.9422 3.0522-5.234 0.28418-0.0458 0.5409-0.0918 0.72424-0.0918 0.22918 0 0.22902-0.21988 0.11901-0.21988-0.22918 0-0.50353 0.0178-0.78771 0.0453 0.24752-1.2009 0.48596-2.1719 0.92598-2.3552 1.1826-0.23834 1.4207-0.85344 1.0541-0.85344zm-25.144 0.55083c-2.0901 0-1.5312 5.6466-3.0896 7.4068-0.5592-0.20168-1.0724-0.33889-1.4666-0.33889-0.96256 0-1.0077 1.0994 0.34908 1.0994 0.45836 0 0.85221-0.11897 1.1731-0.32982 1.1917 0.5867 2.585 1.4576 3.7493 1.4576 1.1917 0 1.2931-1.045 0.99059-1.045 0 0-0.15654 0.50436-0.87158 0.50436-0.79755 0-2.2279-0.70637-3.5113-1.2014 1.8793-1.8334 1.3937-7.1313 2.8788-7.1313 0.23835 0 0.32982 0.0918 0.32982 0.0918s0.05513-0.51343-0.53156-0.51343zm37.71 0c-0.66921 0-1.8792 3.6389-1.8792 6.3799 0 1.1642 0.28421 2.0537 1.0359 2.0537 0.54086 0 0.88942-0.82555 0.91692-0.88972 0.01834-0.0733-0.15591-0.10084-0.20175 0-0.08251 0.18335-0.36609 0.5871-0.67777 0.5871-0.34835 0-0.53157-0.61403-0.53157-1.3657 0-3.0435 1.4938-6.5828 1.4938-6.5828 0-0.11917-0.04642-0.18248-0.15641-0.18248zm-36.509 0.21988c-0.46753 0-0.77071 0.83418-0.77071 2.0809 0 0.13751 0.32076 0.16525 0.32076 0.0827 0-1.3018 0.66984-1.9256 0.66984-1.9256 0-0.14668-0.10071-0.23802-0.21988-0.23802zm23.53 1.8882c-0.46753 0-0.77071 0.84335-0.77071 2.0809 0 0.13751 0.32189 0.17431 0.32189 0.0918 0-1.3018 0.6687-1.9347 0.6687-1.9347 0-0.14668-0.10987-0.23802-0.21988-0.23802zm-12.849 0.23802c-0.89838 0-1.9895 1.8884-2.5762 3.2268h-0.06347c0.18335-1.4026 0.60524-2.7406 0.60524-2.7406 0-0.12834-0.05536-0.20175-0.17454-0.20175-0.54087 0-0.94412 1.834-0.94412 3.5849 0 0.49503 0.06333 0.72424 0.28335 0.72424 0.07334 0 0.1292-0.0561 0.1292-0.11107 0-0.5317 1.2744-3.1526 2.1637-3.9318-0.25668 0.6142-0.23005 1.5675 0.18248 1.5675 0.02751 0 0.04648-0.0278 0.04648-0.0737 0-1.2834 0.55876-1.852 0.55876-1.852 0-0.10084-0.08247-0.19268-0.21081-0.19268zm16.315 0c-0.89838 0-1.9884 1.8884-2.5751 3.2268h-0.0646c0.18334-1.4026 0.60524-2.7406 0.60524-2.7406 0-0.12834-0.05536-0.20175-0.17455-0.20175-0.54086 0-0.94412 1.834-0.94412 3.5849 0 0.49503 0.06447 0.72424 0.28449 0.72424 0.07333 0 0.12807-0.0561 0.12807-0.11107 0-0.5317 1.2744-3.1526 2.1637-3.9318-0.25668 0.6142-0.22891 1.5675 0.18361 1.5675 0.02751 0 0.04532-0.0278 0.04532-0.0737 0-1.2834 0.5599-1.852 0.5599-1.852 0-0.10084-0.0836-0.19268-0.21195-0.19268zm-21.674 0.21988c-2.0168 0-3.1626 4.5291-1.5675 4.5291 0.45836 0 1.1919-1.0357 1.7511-1.9891h0.0918c-0.06417 0.40336-0.10087 0.83451-0.10087 1.2195 0 0.99006 0.25704 1.7964 0.79791 1.7964 0.36669 0 0.58596-0.69704 0.58596-0.69704s0.0282-0.10087-0.06347-0.10087c-0.10084 0-0.12808 0.10087-0.12808 0.10087s-0.11054 0.38536-0.36722 0.38536c-0.18335 0-0.28448-0.23794-0.28448-0.97132 0-2.0535 0.76164-3.6393 0.76164-3.6393 0-0.12834-0.06453-0.21195-0.17454-0.21195-0.24752 0-0.45816 0.27575-0.6415 0.66077-0.28418 0.5592-1.6414 3.1168-2.1365 3.1168-0.64171 0 0.1838-3.951 1.4122-3.951 0.29335 0 0.39442 0.31169 0.39442 0.31169s0.02664 0.10087 0.18248 0.10087c0.12834 0 0.15641-0.15641 0.15641-0.15641s-0.1473-0.50436-0.66984-0.50436zm6.627 0.0646c-0.55004 0-0.95319 1.834-0.95319 3.5849 0 0.49503 0.0724 0.72424 0.29242 0.72424 0.07333 0 0.1292-0.0561 0.1292-0.11107 0-0.16501 0.99019-2.8321 1.9619-3.6847 0.14668-0.11917 0.27468-0.083 0.23802 0.0453-0.11001 0.42169-0.39442 1.6137-0.39442 2.778 0 1.0359 0.26568 1.7964 0.74238 1.7964 0.28418 0 0.47716-0.39329 0.47716-0.39329s0.03615-0.0918-0.05553-0.0918-0.15544 0.17341-0.34795 0.17341c-0.17418 0-0.28448-0.24711-0.28448-0.97132 0-1.5034 0.60523-3.3458 0.60523-3.3458 0-0.27502-0.13807-0.44883-0.46809-0.44883-0.96256 0-1.8149 1.7049-2.3008 2.9242h-0.08274c0.18335-1.4118 0.60524-2.778 0.60524-2.778 0-0.12834-0.05432-0.20175-0.16434-0.20175zm-10.13 0.0181c-2.2093 0-3.5289 4.7399-1.0813 4.7399 0.89839 0 1.4111-1.0722 1.4111-1.0722s0.02756-0.0737-0.10994-0.0737c-0.13751 0-0.17341 0.0737-0.17341 0.0737s-0.39412 0.75144-1.045 0.75144c-1.5493 0-0.44919-4.1902 0.93505-4.1902 0.79755 0-0.1194 2.2373-1.3295 2.2373 0 0 0.06357 0.18361 0.36609 0.18361 1.6409 0 2.3653-2.6499 1.0269-2.6499zm27.775 0c-2.2093 0-3.53 4.7399-1.0824 4.7399 0.89839 0 1.4122-1.0722 1.4122-1.0722s0.02756-0.0737-0.10994-0.0737c-0.13751 0-0.17454 0.0737-0.17454 0.0737s-0.39412 0.75144-1.045 0.75144c-1.5493 0-0.4492-4.1902 0.93505-4.1902 0.79755 0-0.1194 2.2373-1.3295 2.2373 0 0 0.0647 0.18361 0.36722 0.18361 1.6409 0 2.3653-2.6499 1.0269-2.6499zm3.5589 0c-2.2093 0-3.53 4.7399-1.0824 4.7399 0.89838 0 1.4122-1.0722 1.4122-1.0722s0.02757-0.0737-0.10994-0.0737-0.17455 0.0737-0.17455 0.0737-0.39412 0.75144-1.045 0.75144c-1.5493 0-0.44919-4.1902 0.93505-4.1902 0.79755 0-0.1194 2.2373-1.3295 2.2373 0 0 0.0647 0.18361 0.36722 0.18361 1.6409 0 2.3653-2.6499 1.0269-2.6499zm4.9575 0c-0.81588 0-2.1998 4.41-0.65057 4.41 0.5042 0 1.237-1.0916 1.8146-2.1183h0.08274c-0.06417 0.31168-0.12758 0.6415-0.17341 0.95318-0.07334 0.40336-0.13841 0.86215-0.23008 1.3114-1.4576 0.055-2.3559 0.7699-2.8142 1.4666-0.06417 0.0917 0.14664 0.15628 0.21082 0.0646 0.49502-0.68754 1.2473-1.2374 2.549-1.2649-0.27502 1.2651-0.77067 2.4935-1.9166 2.4935-0.48586 0-0.68708-0.18378-0.76958-0.37629-0.05501-0.12834-0.28395-0.0636-0.22894 0.0555 0.13751 0.29335 0.38432 0.53156 0.99852 0.53156 1.4209 0 2.0814-1.2747 2.4481-2.659 0.77005 0.20168 0.59616 0.89878 0.59616 0.89878 0.35752 0 0.60507-0.99075-0.5225-1.1833 0.10084-0.4492 0.18281-0.90665 0.25615-1.3284 0.36669-2.1635 0.83418-3.0443 0.83418-3.0443 0-0.12835-0.05519-0.21082-0.19268-0.21082-0.22918 0-0.40283 0.21155-0.56783 0.5599-0.09167 0.20168-1.7052 3.5294-2.2736 3.5294-0.17418 0-0.21988-0.20224-0.21988-0.46809 0-1.2284 0.92598-3.4195 0.92598-3.4195 0-0.11917-0.02809-0.20175-0.15641-0.20175zm3.8581 3.4376c-0.4767 0-0.58607 1.0733-0.26522 1.0733 0 0 0.44883-0.62417 0.44883-0.86252 0-0.13751-0.05524-0.21081-0.18361-0.21081zm-47.818 1.2105c0.35752 0 0.78014 0.14721 1.266 0.36722-0.23835 0.16501-0.50426 0.26522-0.82511 0.26522-1.0176 0-0.93592-0.63244-0.44089-0.63244z" fill="#de5f3a" stroke-width=".33064" style="font-feature-settings:normal;font-variant-caps:normal;font-variant-ligatures:normal;font-variant-numeric:normal"/>
    </g>
    <g stroke-width="1.1541">
     <g transform="matrix(.85171 0 0 .85171 35.71 -39.014)">
      <g transform="matrix(.1186 0 0 .1186 2.5104 81.944)" fill="#fff" filter="url(#hc)">
       <path d="m139.06 694.98c-0.24215-9.928-0.36322-15.497-0.36322-25.547s0-15.982 0.36322-26.152c0.24215-10.049 1.9372-10.412 10.412-11.018 0.72644-0.72644 0.72644-2.0582 0-2.7847-4.4797 0.24215-11.986 0.60537-15.618 0.60537s-11.865-0.36322-15.74-0.60537c-0.72644 0.72644-0.72644 2.0582 0 2.7847 8.4751 0.72644 10.412 0.96859 10.654 11.018 0.24215 10.049 0.36322 15.982 0.36322 26.031s-0.12107 15.618-0.36322 25.668c-0.24214 10.049-2.1793 10.654-10.654 11.018-0.72644 0.72644-0.72644 2.0582 0 2.7847 4.7219-0.24214 12.107-0.60536 15.74-0.60536s10.654 0.24214 15.618 0.60536c0.72644-0.72644 0.72644-2.0582 0-2.7847-8.4751-0.36322-10.17-0.96859-10.412-11.018z"/>
       <path d="m222.38 644.61 0.12107 42.012c0 2.3004-0.60537 3.6322-1.4529 3.6322-0.96859 0-2.3004-2.1793-5.8115-6.659l-41.528-53.514-15.618-0.24215c-0.72645 0.72644-0.72645 2.0582 0 2.7847 5.8115 0.36322 8.8384 4.2376 10.17 8.9594l-0.12108 52.062c0 10.776-2.0582 11.502-10.533 12.349-0.72644 0.72644-0.72644 2.0582 0 2.7847 5.9326-0.12107 7.9908-0.60536 13.076-0.60536 5.0851 0 6.9012 0.48429 12.955 0.60536 0.72644-0.72644 0.72644-2.0582 0-2.7847-8.4751-0.84751-10.533-1.3318-10.533-12.349l-0.12108-38.622c0-4.1165 0.60537-5.9326 1.574-5.9326 0.72644 0 2.0582 1.3318 4.1165 3.9954l42.255 53.393c1.3318 1.8161 2.9058 2.9058 4.8429 2.9058 1.695 0 1.4529-1.4529 1.4529-3.7533l0.12107-61.021c0-10.776 2.0582-11.502 10.533-12.35 0.72644-0.72644 0.72644-2.0582 0-2.7847-5.9326 0.12107-7.9908 0.60537-13.076 0.60537-5.0851 0-6.9012-0.4843-12.955-0.60537-0.72644 0.72644-0.72644 2.0582 0 2.7847 8.4752 0.84751 10.533 1.3318 10.533 12.35z"/>
       <path d="m265.81 694.98c-0.24215-9.6859-0.36322-15.255-0.36322-24.82 4.2376 0.12107 8.4751 2.0582 11.018 5.2062l19.009 23.973c2.4215 3.1479 4.1165 6.7801 4.3586 8.7173 0 0.36322 0.12107 0.72644 0.60537 0.72644 2.4215-0.12107 2.1793-0.60536 5.8115-0.60536 4.7219 0 7.7487 0.48429 13.439 0.60536 0.72644-0.72644 0.72644-2.0582 0-2.7847-2.1793-0.36322-7.7487-1.574-11.865-6.659l-26.515-31.479c-0.96859-1.0897-1.574-2.0582-1.574-3.0268 0-0.84752 0.12107-1.695 4.2376-5.9326l17.798-18.282c5.5694-5.9326 11.623-7.7487 16.466-8.3541 0.72644-0.72644 0.72644-2.0582 0-2.7847-5.6904 0.12107-7.8698 0.60537-12.713 0.60537s-8.5962-0.4843-14.287-0.60537c-0.72644 0.72644-0.72644 2.0582 0 2.7847 4.3586 0.36322 9.5648 2.4215 4.6008 7.8698l-19.372 21.309c-2.5426 2.7847-6.538 4.964-11.018 5.3272 0-8.4751 0.12107-14.287 0.36322-23.488 0.24215-10.049 2.0582-10.654 10.533-11.018 0.72644-0.72644 0.72644-2.0582 0-2.7847-5.9326 0.12107-9.6859 0.60537-15.861 0.60537-6.0537 0-9.4437-0.4843-15.497-0.60537-0.72644 0.72644-0.72644 2.0582 0 2.7847 8.4751 0.36322 10.17 0.96859 10.412 11.018s0.48429 15.982 0.48429 26.031-0.24214 15.618-0.48429 25.668c-0.24215 10.049-1.9372 10.654-10.412 11.018-0.72644 0.72644-0.72644 2.0582 0 2.7847 5.9326-0.12107 9.5648-0.60536 15.74-0.60536 6.0537 0 9.5648 0.48429 15.618 0.60536 0.72644-0.72644 0.72644-2.0582 0-2.7847-8.4751-0.36322-10.291-0.96859-10.533-11.018z"/>
       <path d="m368.54 631.78c-7.0223-0.96859-6.659-3.269-18.524-3.269-12.228 0-23.004 8.1119-23.004 20.946 0 11.381 7.9908 16.829 17.435 20.825 7.6276 3.3901 20.219 6.0537 20.219 19.856 0 9.807-5.8115 16.103-15.376 16.103-11.381 0-19.856-6.2958-22.52-18.403-1.4529-0.48429-1.574-0.24215-2.6636 0.36322 0.4843 9.3227 0.96859 12.471 2.4215 18.403 7.6276 0 10.897 2.7847 21.672 2.7847 5.5694 0 10.776-1.3318 15.013-3.8744 6.9012-4.3586 11.381-11.865 11.381-19.614 0-11.502-7.8698-16.95-16.708-20.704-5.8115-2.4215-22.52-7.1433-22.52-19.009 0-6.7801 6.4169-14.771 13.439-14.771 11.865 0 16.829 8.7173 19.251 16.708 1.3318 0 1.574 0.12107 2.6636-0.72644-0.36322-5.8115-0.84752-9.2016-2.1793-15.618z"/>
       <path d="m421.98 709.39c11.744 0 23.73-5.5694 31.963-16.345-0.60537-1.0897-1.4529-1.8161-2.7847-1.8161-8.5962 9.4437-16.829 13.197-28.089 13.197-18.766 0-28.21-19.009-28.21-36.685 0-19.735 12.592-35.959 27.847-35.959 16.708 0 23.851 11.139 26.999 21.551 1.0897 0.12107 1.8161 0 2.7847-0.60537-0.60537-6.2958-1.4529-12.107-2.6636-18.766-6.1748-0.60537-11.623-5.4483-26.515-5.4483-23.973 0-39.349 18.766-39.349 41.528 0 21.43 11.986 39.349 38.017 39.349z"/>
       <path d="m489.71 674.52c-2.6636 0-3.5111-0.96859-3.0268-2.1793l12.713-31.358h0.36322l11.623 33.537zm-13.681 25.304 7.2644-18.766c0.60537-1.574 1.3318-2.6636 4.2376-2.6636h25.304l7.6276 22.278c1.695 4.964-3.1479 4.964-8.9594 5.3272-0.72644 0.72644-0.72644 2.0582 0 2.7847 4.4797-0.12107 11.139-0.60536 15.861-0.60536 4.964 0 10.17 0.48429 14.65 0.60536 0.72644-0.72644 0.72644-2.0582 0-2.7847-4.7219-0.36322-8.7173-0.84751-10.897-7.0223l-25.304-70.465c-1.8161 1.0897-4.7219 2.4215-6.2958 2.4215l-28.089 66.106c-3.1479 7.3855-6.7801 8.5962-12.107 8.9594-0.72644 0.72644-0.72644 2.0582 0 2.7847 4.4797-0.12107 7.2644-0.60536 11.986-0.60536 4.964 0 8.5962 0.48429 13.076 0.60536 0.72644-0.72644 0.72644-2.0582 0-2.7847-4.6008-0.24214-10.291-1.0897-8.3541-6.1748z"/>
       <path d="m565.53 672.34c2.6636 0.84752 6.1748 1.0897 10.291 1.0897 22.035 0 28.331-13.802 28.331-24.094 0-7.1433-4.4797-20.461-26.878-20.461-3.1479 0-11.623 1.2107-16.466 1.2107-6.0537 0-9.4437-0.4843-15.497-0.60537-0.72644 0.72644-0.72644 2.0582 0 2.7847 8.4751 0.36322 10.291 0.96859 10.412 11.018s0.24215 15.982 0.24215 26.031 0 15.618-0.24215 25.668c-0.24215 10.17-1.9372 10.654-10.412 11.018-0.72644 0.72644-0.72644 2.0582 0 2.7847 5.9326-0.12107 9.5648-0.60536 15.74-0.60536 6.7801 0 11.139 0.48429 17.192 0.60536 0.72644-0.72644 0.72644-2.0582 0-2.7847-8.3541-0.48429-12.35-1.0897-12.471-8.1119-0.12107-9.0805-0.24215-16.829-0.24215-25.547zm0.24215-34.748c0.12107-3.5111 2.0582-5.8115 10.776-5.8115 8.3541 0 16.95 4.3586 16.95 19.735 0 13.076-6.659 19.009-18.403 19.009-2.9058 0-7.9908-0.24215-9.5648-0.60537v-0.60536c0-10.049 0.12108-21.672 0.24215-31.721z"/>
       <path d="m647.32 664.95-14.166 0.12107s-0.12107-16.466 0.24215-26.394c0.12107-2.9058 1.574-5.3272 4.4797-5.3272h18.887c9.0805 0 10.897 6.4169 13.56 14.771 1.4529 0.24214 1.695 0 2.9058-0.60537-0.60537-4.964-2.4215-16.95-2.6636-17.919 0-0.24214-0.12107-0.36322-0.48429-0.36322-2.0582 0.36322-3.1479 0.84752-6.0537 0.84752h-35.353c-3.6322 0-9.6859-0.4843-15.74-0.60537-0.72644 0.72644-0.72644 2.0582 0 2.7847 8.4751 0.36322 10.049 0.96859 10.412 11.018 0.24215 9.928 0.24215 15.982 0.24215 26.031s0 15.74-0.24215 25.668c-0.36322 10.049-1.9372 10.654-10.412 11.018-0.72644 0.72644-0.72644 2.0582 0 2.7847 5.9326-0.12107 12.35-0.60536 15.982-0.60536h26.878c5.8115 0 15.497 0.60536 15.497 0.60536 1.695-6.0537 3.3901-14.408 4.3586-20.582-1.2107-0.72644-1.3318-0.96859-2.9058-0.60537-2.4215 8.7173-6.7801 17.435-15.982 17.435h-18.887c-2.6636 0-4.3586-1.9372-4.4797-5.2062-0.36322-10.17-0.24215-31.358-0.24215-31.358l14.166 0.12108c10.291 0.12107 10.776 2.6636 11.139 8.1119 0.72644 0.72644 1.9372 0.72644 2.6636 0-0.12108-4.2376-0.4843-5.6904-0.4843-9.4437 0-3.9954 0.36322-6.7801 0.4843-10.412-0.72644-0.72644-1.9372-0.72644-2.6636 0-0.36322 6.659-0.84751 8.1119-11.139 8.1119z"/>
      </g>
      <g transform="matrix(.1186 0 0 .1186 1.9833 81.944)">
       <path d="m139.06 694.98c-0.24215-9.928-0.36322-15.497-0.36322-25.547s0-15.982 0.36322-26.152c0.24215-10.049 1.9372-10.412 10.412-11.018 0.72644-0.72644 0.72644-2.0582 0-2.7847-4.4797 0.24215-11.986 0.60537-15.618 0.60537s-11.865-0.36322-15.74-0.60537c-0.72644 0.72644-0.72644 2.0582 0 2.7847 8.4751 0.72644 10.412 0.96859 10.654 11.018 0.24215 10.049 0.36322 15.982 0.36322 26.031s-0.12107 15.618-0.36322 25.668c-0.24214 10.049-2.1793 10.654-10.654 11.018-0.72644 0.72644-0.72644 2.0582 0 2.7847 4.7219-0.24214 12.107-0.60536 15.74-0.60536s10.654 0.24214 15.618 0.60536c0.72644-0.72644 0.72644-2.0582 0-2.7847-8.4751-0.36322-10.17-0.96859-10.412-11.018z"/>
       <path d="m222.38 644.61 0.12107 42.012c0 2.3004-0.60537 3.6322-1.4529 3.6322-0.96859 0-2.3004-2.1793-5.8115-6.659l-41.528-53.514-15.618-0.24215c-0.72645 0.72644-0.72645 2.0582 0 2.7847 5.8115 0.36322 8.8384 4.2376 10.17 8.9594l-0.12108 52.062c0 10.776-2.0582 11.502-10.533 12.349-0.72644 0.72644-0.72644 2.0582 0 2.7847 5.9326-0.12107 7.9908-0.60536 13.076-0.60536 5.0851 0 6.9012 0.48429 12.955 0.60536 0.72644-0.72644 0.72644-2.0582 0-2.7847-8.4751-0.84751-10.533-1.3318-10.533-12.349l-0.12108-38.622c0-4.1165 0.60537-5.9326 1.574-5.9326 0.72644 0 2.0582 1.3318 4.1165 3.9954l42.255 53.393c1.3318 1.8161 2.9058 2.9058 4.8429 2.9058 1.695 0 1.4529-1.4529 1.4529-3.7533l0.12107-61.021c0-10.776 2.0582-11.502 10.533-12.35 0.72644-0.72644 0.72644-2.0582 0-2.7847-5.9326 0.12107-7.9908 0.60537-13.076 0.60537-5.0851 0-6.9012-0.4843-12.955-0.60537-0.72644 0.72644-0.72644 2.0582 0 2.7847 8.4752 0.84751 10.533 1.3318 10.533 12.35z"/>
       <path d="m265.81 694.98c-0.24215-9.6859-0.36322-15.255-0.36322-24.82 4.2376 0.12107 8.4751 2.0582 11.018 5.2062l19.009 23.973c2.4215 3.1479 4.1165 6.7801 4.3586 8.7173 0 0.36322 0.12107 0.72644 0.60537 0.72644 2.4215-0.12107 2.1793-0.60536 5.8115-0.60536 4.7219 0 7.7487 0.48429 13.439 0.60536 0.72644-0.72644 0.72644-2.0582 0-2.7847-2.1793-0.36322-7.7487-1.574-11.865-6.659l-26.515-31.479c-0.96859-1.0897-1.574-2.0582-1.574-3.0268 0-0.84752 0.12107-1.695 4.2376-5.9326l17.798-18.282c5.5694-5.9326 11.623-7.7487 16.466-8.3541 0.72644-0.72644 0.72644-2.0582 0-2.7847-5.6904 0.12107-7.8698 0.60537-12.713 0.60537s-8.5962-0.4843-14.287-0.60537c-0.72644 0.72644-0.72644 2.0582 0 2.7847 4.3586 0.36322 9.5648 2.4215 4.6008 7.8698l-19.372 21.309c-2.5426 2.7847-6.538 4.964-11.018 5.3272 0-8.4751 0.12107-14.287 0.36322-23.488 0.24215-10.049 2.0582-10.654 10.533-11.018 0.72644-0.72644 0.72644-2.0582 0-2.7847-5.9326 0.12107-9.6859 0.60537-15.861 0.60537-6.0537 0-9.4437-0.4843-15.497-0.60537-0.72644 0.72644-0.72644 2.0582 0 2.7847 8.4751 0.36322 10.17 0.96859 10.412 11.018s0.48429 15.982 0.48429 26.031-0.24214 15.618-0.48429 25.668c-0.24215 10.049-1.9372 10.654-10.412 11.018-0.72644 0.72644-0.72644 2.0582 0 2.7847 5.9326-0.12107 9.5648-0.60536 15.74-0.60536 6.0537 0 9.5648 0.48429 15.618 0.60536 0.72644-0.72644 0.72644-2.0582 0-2.7847-8.4751-0.36322-10.291-0.96859-10.533-11.018z"/>
       <path d="m368.54 631.78c-7.0223-0.96859-6.659-3.269-18.524-3.269-12.228 0-23.004 8.1119-23.004 20.946 0 11.381 7.9908 16.829 17.435 20.825 7.6276 3.3901 20.219 6.0537 20.219 19.856 0 9.807-5.8115 16.103-15.376 16.103-11.381 0-19.856-6.2958-22.52-18.403-1.4529-0.48429-1.574-0.24215-2.6636 0.36322 0.4843 9.3227 0.96859 12.471 2.4215 18.403 7.6276 0 10.897 2.7847 21.672 2.7847 5.5694 0 10.776-1.3318 15.013-3.8744 6.9012-4.3586 11.381-11.865 11.381-19.614 0-11.502-7.8698-16.95-16.708-20.704-5.8115-2.4215-22.52-7.1433-22.52-19.009 0-6.7801 6.4169-14.771 13.439-14.771 11.865 0 16.829 8.7173 19.251 16.708 1.3318 0 1.574 0.12107 2.6636-0.72644-0.36322-5.8115-0.84752-9.2016-2.1793-15.618z"/>
       <path d="m421.98 709.39c11.744 0 23.73-5.5694 31.963-16.345-0.60537-1.0897-1.4529-1.8161-2.7847-1.8161-8.5962 9.4437-16.829 13.197-28.089 13.197-18.766 0-28.21-19.009-28.21-36.685 0-19.735 12.592-35.959 27.847-35.959 16.708 0 23.851 11.139 26.999 21.551 1.0897 0.12107 1.8161 0 2.7847-0.60537-0.60537-6.2958-1.4529-12.107-2.6636-18.766-6.1748-0.60537-11.623-5.4483-26.515-5.4483-23.973 0-39.349 18.766-39.349 41.528 0 21.43 11.986 39.349 38.017 39.349z"/>
       <path d="m489.71 674.52c-2.6636 0-3.5111-0.96859-3.0268-2.1793l12.713-31.358h0.36322l11.623 33.537zm-13.681 25.304 7.2644-18.766c0.60537-1.574 1.3318-2.6636 4.2376-2.6636h25.304l7.6276 22.278c1.695 4.964-3.1479 4.964-8.9594 5.3272-0.72644 0.72644-0.72644 2.0582 0 2.7847 4.4797-0.12107 11.139-0.60536 15.861-0.60536 4.964 0 10.17 0.48429 14.65 0.60536 0.72644-0.72644 0.72644-2.0582 0-2.7847-4.7219-0.36322-8.7173-0.84751-10.897-7.0223l-25.304-70.465c-1.8161 1.0897-4.7219 2.4215-6.2958 2.4215l-28.089 66.106c-3.1479 7.3855-6.7801 8.5962-12.107 8.9594-0.72644 0.72644-0.72644 2.0582 0 2.7847 4.4797-0.12107 7.2644-0.60536 11.986-0.60536 4.964 0 8.5962 0.48429 13.076 0.60536 0.72644-0.72644 0.72644-2.0582 0-2.7847-4.6008-0.24214-10.291-1.0897-8.3541-6.1748z"/>
       <path d="m565.53 672.34c2.6636 0.84752 6.1748 1.0897 10.291 1.0897 22.035 0 28.331-13.802 28.331-24.094 0-7.1433-4.4797-20.461-26.878-20.461-3.1479 0-11.623 1.2107-16.466 1.2107-6.0537 0-9.4437-0.4843-15.497-0.60537-0.72644 0.72644-0.72644 2.0582 0 2.7847 8.4751 0.36322 10.291 0.96859 10.412 11.018s0.24215 15.982 0.24215 26.031 0 15.618-0.24215 25.668c-0.24215 10.17-1.9372 10.654-10.412 11.018-0.72644 0.72644-0.72644 2.0582 0 2.7847 5.9326-0.12107 9.5648-0.60536 15.74-0.60536 6.7801 0 11.139 0.48429 17.192 0.60536 0.72644-0.72644 0.72644-2.0582 0-2.7847-8.3541-0.48429-12.35-1.0897-12.471-8.1119-0.12107-9.0805-0.24215-16.829-0.24215-25.547zm0.24215-34.748c0.12107-3.5111 2.0582-5.8115 10.776-5.8115 8.3541 0 16.95 4.3586 16.95 19.735 0 13.076-6.659 19.009-18.403 19.009-2.9058 0-7.9908-0.24215-9.5648-0.60537v-0.60536c0-10.049 0.12108-21.672 0.24215-31.721z"/>
       <path d="m647.32 664.95-14.166 0.12107s-0.12107-16.466 0.24215-26.394c0.12107-2.9058 1.574-5.3272 4.4797-5.3272h18.887c9.0805 0 10.897 6.4169 13.56 14.771 1.4529 0.24214 1.695 0 2.9058-0.60537-0.60537-4.964-2.4215-16.95-2.6636-17.919 0-0.24214-0.12107-0.36322-0.48429-0.36322-2.0582 0.36322-3.1479 0.84752-6.0537 0.84752h-35.353c-3.6322 0-9.6859-0.4843-15.74-0.60537-0.72644 0.72644-0.72644 2.0582 0 2.7847 8.4751 0.36322 10.049 0.96859 10.412 11.018 0.24215 9.928 0.24215 15.982 0.24215 26.031s0 15.74-0.24215 25.668c-0.36322 10.049-1.9372 10.654-10.412 11.018-0.72644 0.72644-0.72644 2.0582 0 2.7847 5.9326-0.12107 12.35-0.60536 15.982-0.60536h26.878c5.8115 0 15.497 0.60536 15.497 0.60536 1.695-6.0537 3.3901-14.408 4.3586-20.582-1.2107-0.72644-1.3318-0.96859-2.9058-0.60537-2.4215 8.7173-6.7801 17.435-15.982 17.435h-18.887c-2.6636 0-4.3586-1.9372-4.4797-5.2062-0.36322-10.17-0.24215-31.358-0.24215-31.358l14.166 0.12108c10.291 0.12107 10.776 2.6636 11.139 8.1119 0.72644 0.72644 1.9372 0.72644 2.6636 0-0.12108-4.2376-0.4843-5.6904-0.4843-9.4437 0-3.9954 0.36322-6.7801 0.4843-10.412-0.72644-0.72644-1.9372-0.72644-2.6636 0-0.36322 6.659-0.84751 8.1119-11.139 8.1119z"/>
      </g>
     </g>
     <g transform="matrix(.70249 0 0 .70249 -7.9722 .14596)">
      <g transform="matrix(.11149 0 0 .11149 27.644 109.91)" fill="#fff" filter="url(#hc)">
       <path d="m163.15 27.83-134.34 137.47c-45.39 56.21 30.89 49.67 63.59 65.86 11.73 11.99-44.96 20.84-33.23 32.84 11.73 11.99 70.93 23.1 82.68 35.09 11.73 11.99-24.01 24.71-12.28 36.7s38.86 0.63 43.94 28.31c3.62 19.78 48.89 8.5 71.03-7.7 11.73-12-22.44-10.87-10.71-22.86 29.17-29.83 56.33-10.84 66.31-40.73 4.93-14.77-42.94-22.77-31.19-34.76 33.75-19.71 150.4-32.54 95.05-87.89l-139.25-142.33c-17.03-16.35-45.45-16.53-61.6 0zm154.31 264.98c0 6.82 50.25 11.29 50.25-1.61-7.16-20.72-44.31-19.32-50.25 1.61zm-226.36 36.24c11.9 10.29 30.28-2.56 35.79-16.92-11.53-15.32-54.69 0.55-35.79 16.92zm220.06-22.23c-15.34 13.76 1.72 27.72 16.84 18.83 3.37-3.42-0.09-15.41-16.84-18.83z"/>
       <path d="m131 238.6c3.59 2.23 57.89 13.26 71.16 15.46 4.6 0.97 1.34 5.71-5 8.91-14.3 3.8-83.66-24.37-66.16-24.37z"/>
       <path d="m216.63 37.47 53.15 53.98c5.04 5.15 4.97 15.13 2.15 18l-26.39-21.11-5.19 31.26-22.05-11.64-35.31 22.31-11.69-47.03-18.97 32.82h-29c-11.82 0-13.21-15-2.47-25.74 18.76-20.25 40.29-40.89 51.99-52.85 11.76-12.02 32.25-11.68 43.78 0z"/>
      </g>
      <g transform="matrix(.11149 0 0 .11149 27.117 109.91)">
       <path d="m163.15 27.83-134.34 137.47c-45.39 56.21 30.89 49.67 63.59 65.86 11.73 11.99-44.96 20.84-33.23 32.84 11.73 11.99 70.93 23.1 82.68 35.09 11.73 11.99-24.01 24.71-12.28 36.7s38.86 0.63 43.94 28.31c3.62 19.78 48.89 8.5 71.03-7.7 11.73-12-22.44-10.87-10.71-22.86 29.17-29.83 56.33-10.84 66.31-40.73 4.93-14.77-42.94-22.77-31.19-34.76 33.75-19.71 150.4-32.54 95.05-87.89l-139.25-142.33c-17.03-16.35-45.45-16.53-61.6 0zm154.31 264.98c0 6.82 50.25 11.29 50.25-1.61-7.16-20.72-44.31-19.32-50.25 1.61zm-226.36 36.24c11.9 10.29 30.28-2.56 35.79-16.92-11.53-15.32-54.69 0.55-35.79 16.92zm220.06-22.23c-15.34 13.76 1.72 27.72 16.84 18.83 3.37-3.42-0.09-15.41-16.84-18.83z"/>
       <path d="m131 238.6c3.59 2.23 57.89 13.26 71.16 15.46 4.6 0.97 1.34 5.71-5 8.91-14.3 3.8-83.66-24.37-66.16-24.37z" fill="#fff"/>
       <path d="m216.63 37.47 53.15 53.98c5.04 5.15 4.97 15.13 2.15 18l-26.39-21.11-5.19 31.26-22.05-11.64-35.31 22.31-11.69-47.03-18.97 32.82h-29c-11.82 0-13.21-15-2.47-25.74 18.76-20.25 40.29-40.89 51.99-52.85 11.76-12.02 32.25-11.68 43.78 0z" fill="#fff"/>
      </g>
     </g>
     <g fill="#fff">
      <g transform="matrix(.46398 0 0 .46398 -33.497 -166.29)" filter="url(#hw)">
       <path d="m291 530.77v15.118h1.2962l2.5925-5.2529 5.1113 8.7256h4l-6.5188-9.9266h6.1177v-1.6176l-12.599-8.4558z" fill="#fff" stroke-width="1.1541"/>
      </g>
      <g transform="matrix(.43713 0 0 .43713 -.50167 -164.42)" filter="url(#hw)">
       <g fill="#fff">
        <path d="m307.03 557.4c-8.091-0.50569-12.862 1.4433-15.904 4.2266-3.4618 3.1673-4.6306 7.7444-4.127 15.803l1-0.0625c-0.49635-7.9416 0.60776-12.079 3.8027-15.002 2.8329-2.5918 7.257-4.4611 15.166-3.9668z" color="#000000" color-rendering="auto" dominant-baseline="auto" enable-background="accumulate" image-rendering="auto" shape-rendering="auto" solid-color="#000000" style="font-feature-settings:normal;font-variant-alternates:normal;font-variant-caps:normal;font-variant-ligatures:normal;font-variant-numeric:normal;font-variant-position:normal;isolation:auto;mix-blend-mode:normal;shape-padding:0;text-decoration-color:#000000;text-decoration-line:none;text-decoration-style:solid;text-indent:0;text-orientation:mixed;text-transform:none;white-space:normal"/>
        <g fill-rule="evenodd" stroke-width="1.1541">
         <rect x="289" y="559.36" width="4" height="4" color="#000000"/>
         <rect id="hn" x="286" y="575.36" width="3" height="3" color="#000000" fill="#fff" fill-rule="evenodd" stroke-width="1.1541"/>
         <path d="m294 564.36 7.8 14.039 5.2-5.2646z"/>
        </g>
       </g>
       <use transform="translate(19 -19)" width="1250" height="1250" fill="#ffffff" stroke-width="1.1541" xlink:href="#hn"/>
      </g>
      <g transform="matrix(.39126 0 0 .39126 37.901 -235.69)" filter="url(#hw)">
       <path d="m285 805.36v0.5c6.7457 2.1875-0.9774 11.462 0.8919 19 2.1081 8.5 6.286 2 6.286 2s-0.1779-2.5-0.4216-1.5c0 0-2.7563 4-3.7563-1-1.6756-8.3781 12.6-19-3-19z"/>
       <path d="m309 809.36 0.0374 3.4451-5.0824-5.4624 1.7099-1.8525m-2.7074 2.9449 2.0425 2.185 0.9975 1.0925 2.0424 2.185-1.045 1.0925c-1.0131 1.0911-0.9818 1.0951-1.9949 4.3699-4.0529 4.3646-8.1224 4.3699-8.1224 4.3699l-0.9975 1.0925s-1.0293 1.0911-2.0425 0l6.0799-6.5549 0.095-0.1424c0.8018 0.4211 1.7564 0.289 2.4225-0.4275 0.8395-0.9042 0.8389-2.3747 0-3.2775s-2.2004-0.9041-3.0399 0c-0.666 0.7168-0.7715 1.7967-0.38 2.66l-0.095 0.095-6.0799 6.5549c-1.0132-1.0912 0-2.185 0-2.185l0.9974-1.0925s-0.0154-4.3753 4.0375-8.7398c3.0401-1.0925 3.0717-1.0938 4.0849-2.185z"/>
      </g>
      <g transform="matrix(.41945 0 0 .41945 -69.626 -207.61)" filter="url(#hw)">
       <g transform="matrix(1.1525 0 0 1.1677 -234.55 477.09)">
        <path transform="matrix(.86765 0 0 .85635 202.67 29.352)" d="m294.5 171-8.5 6.6562 3 10.344h1.9375l1.0777-2.0366c-0.5545-0.01-0.9759 0.041-1.5291 0.081l-2.558-7.6907 6.6237-5.2651 4.9785 3.9116 1.3447-1z" color="#000000" fill="#fff" stroke-width="1.1369"/>
       </g>
       <path transform="translate(0 512.36)" d="m302.59 174.03-5.125 4.7813-6.625-1.7188 2.8438 6.4063-3.6875 5.9062 6.9062-0.8125 4.3125 5.4063 1.4063-7 6.4062-1.7045-6.0625-4.2955zm-1.2651 3.4549 0.25 4.4201 4.0678 2.7027-4.154 0.9987-1.013 5.1714-2.7607-3.5473-4.9839 0.3728 3.15-3.9924-2.5433-4.4558 4.6638 1.3071z" color="#000000" fill-rule="evenodd"/>
      </g>
      <g transform="matrix(.38132 0 0 .38336 -33.61 -217.08)" filter="url(#hw)">
       <g fill-rule="evenodd" stroke-width="1.1541">
        <path d="m299.31 788.82-1.5844 4.509c-0.4193 1.2247 1.2997 1.8792 1.7357 0.6094l1.7599-4.4746z"/>
        <path d="m298.31 782.76 0.7935 1.1812 5.9242 2.4229 1.5611-0.5092 1.9892-5.5024c-2.5 0-0.5-6-7-6z"/>
        <path d="m299 785.36-0.7016 2 5 1.8992 0.7016-1.8992z"/>
       </g>
       <path d="m286.46 775.36 0.64844 0.78515s3.305 4.0034 5.1426 8.1816c0.91881 2.0891 1.4446 4.2102 1.0938 5.8164-0.35086 1.6062-1.4727 2.8009-4.2676 3.2656l0.15821 0.94531c3.0358-0.50475 4.6191-2.0494 5.0469-4.0078s-0.19599-4.2273-1.1543-6.4062c-1.6237-3.6919-3.9173-6.6468-4.6934-7.6211h10.086v-0.95898z" color="#000000" color-rendering="auto" dominant-baseline="auto" enable-background="accumulate" image-rendering="auto" shape-rendering="auto" solid-color="#000000" style="font-feature-settings:normal;font-variant-alternates:normal;font-variant-caps:normal;font-variant-ligatures:normal;font-variant-numeric:normal;font-variant-position:normal;isolation:auto;mix-blend-mode:normal;shape-padding:0;text-decoration-color:#000000;text-decoration-line:none;text-decoration-style:solid;text-indent:0;text-orientation:mixed;text-transform:none;white-space:normal"/>
       <path d="m286 793.36h4v4h-4z" color="#000000" fill-rule="evenodd" stroke-width="1.1575"/>
       <path d="m287 795.32v1.1172h9v-1.1172z" color="#000000" color-rendering="auto" dominant-baseline="auto" enable-background="accumulate" image-rendering="auto" shape-rendering="auto" solid-color="#000000" style="font-feature-settings:normal;font-variant-alternates:normal;font-variant-caps:normal;font-variant-ligatures:normal;font-variant-numeric:normal;font-variant-position:normal;isolation:auto;mix-blend-mode:normal;shape-padding:0;text-decoration-color:#000000;text-decoration-line:none;text-decoration-style:solid;text-indent:0;text-orientation:mixed;text-transform:none;white-space:normal"/>
       <rect transform="translate(0 512.36)" x="286" y="262" width="4" height="4" stroke-width="1.1541"/>
      </g>
      <g transform="matrix(.41945 0 0 .41945 54.413 -350.23)" filter="url(#hw)">
       <g fill-rule="evenodd">
        <path d="m303 1029.4v-2c-0.5069-1.555-3-1-3 0v2z"/>
        <path d="m306.96 1035.2-0.9558-0.884h-9l-0.9712 1.413-0.029 6.587c2.8952 1.823 3.7348 4.575 11 2z"/>
        <path d="m306 1033.4-2-3h-5l-2 3z"/>
       </g>
       <g transform="translate(-.082947 -.72362)">
        <circle id="hd" transform="matrix(.43572 0 0 .43572 206.83 803.64)" cx="206.59" cy="518.42" r=".92537" color="#000000" fill="#fff" stroke-width=".26488"/>
        <use id="hb" transform="matrix(1.0586 0 0 1.0586 -18.175 -59.249)" width="744.09448" height="1052.3621" fill="#ffffff" stroke-width="1.1541" xlink:href="#hd"/>
        <use id="hm" transform="translate(0 -2.2082)" width="744.09448" height="1052.3621" fill="#ffffff" stroke-width="1.1541" xlink:href="#hb"/>
        <use id="hl" transform="matrix(1.3763 0 0 1.3763 -112.79 -386.94)" width="744.09448" height="1052.3621" fill="#ffffff" stroke-width="1.1541" xlink:href="#hb"/>
        <use id="he" transform="matrix(1.3763 0 0 1.3763 -113.13 -387.87)" width="744.09448" height="1052.3621" fill="#ffffff" stroke-width="1.1541" xlink:href="#hm"/>
        <circle id="hk" transform="matrix(.63484 0 0 .63484 162.59 700.42)" cx="206.59" cy="518.42" r=".92537" color="#000000" fill="#fff" stroke-width=".26488"/>
        <g fill="#fff" stroke-width="1.1541">
         <use id="hj" transform="matrix(1.5012 0 0 1.5012 -149.66 -516.04)" width="744.09448" height="1052.3621" fill="#ffffff" stroke-width="1.1541" xlink:href="#hl"/>
         <use id="hi" transform="matrix(1.5012 0 0 1.5012 -149.79 -515.97)" width="744.09448" height="1052.3621" fill="#ffffff" stroke-width="1.1541" xlink:href="#he"/>
         <use id="hh" transform="matrix(1.5012 0 0 1.5012 -149.54 -516.03)" width="744.09448" height="1052.3621" fill="#ffffff" stroke-width="1.1541" xlink:href="#hk"/>
         <use transform="matrix(1.4856 0 0 1.4856 -145.24 -499.74)" width="744.09448" height="1052.3621" xlink:href="#hj"/>
         <use transform="matrix(1.4856 0 0 1.4856 -145.04 -499.68)" width="744.09448" height="1052.3621" xlink:href="#hi"/>
         <use transform="matrix(1.4856 0 0 1.4856 -144.99 -499.98)" width="744.09448" height="1052.3621" xlink:href="#hh"/>
         <use id="hg" transform="translate(-4.2358 -1.3033)" width="744.09448" height="1052.3621" fill="#ffffff" stroke-width="1.1541" xlink:href="#hd"/>
         <use transform="translate(.44802 2.6881)" width="744.09448" height="1052.3621" xlink:href="#hg"/>
         <use id="hf" transform="translate(-4.7246)" width="744.09448" height="1052.3621" fill="#ffffff" stroke-width="1.1541" xlink:href="#he"/>
         <use transform="translate(.69239 4.1136)" width="744.09448" height="1052.3621" xlink:href="#hf"/>
         <use transform="translate(-.73484 -1.0442)" width="744.09448" height="1052.3621" xlink:href="#hb"/>
        </g>
       </g>
      </g>
     </g>
    </g>
   </g>
  </g>
 </g>
</svg>
