<?xml version="1.0" encoding="UTF-8" standalone="no"?>
<svg
   xmlns:dc="http://purl.org/dc/elements/1.1/"
   xmlns:cc="http://creativecommons.org/ns#"
   xmlns:rdf="http://www.w3.org/1999/02/22-rdf-syntax-ns#"
   xmlns:svg="http://www.w3.org/2000/svg"
   xmlns="http://www.w3.org/2000/svg"
   xmlns:xlink="http://www.w3.org/1999/xlink"
   xmlns:sodipodi="http://sodipodi.sourceforge.net/DTD/sodipodi-0.dtd"
   xmlns:inkscape="http://www.inkscape.org/namespaces/inkscape"
   sodipodi:docname="tracing-f06.svg"
   inkscape:version="1.0beta1 (a4ee55bc41, 2019-11-15)"
   sodipodi:version="0.32"
   id="svg3355"
   viewBox="0 0 300 132"
   height="132"
   width="300"
   version="1.1">
  <defs
     id="defs3" />
  <sodipodi:namedview
     inkscape:window-maximized="0"
     inkscape:window-y="27"
     inkscape:window-x="54"
     inkscape:window-height="1053"
     inkscape:window-width="1866"
     inkscape:guide-bbox="true"
     showguides="true"
     units="px"
     showgrid="false"
     inkscape:document-rotation="0"
     inkscape:current-layer="layer1"
     inkscape:document-units="px"
     inkscape:cy="66"
     inkscape:cx="160"
     inkscape:zoom="1.4"
     inkscape:pageshadow="2"
     inkscape:pageopacity="0.0"
     borderopacity="1.0"
     bordercolor="#666666"
     pagecolor="#ffffff"
     id="base"
     inkscape:lockguides="true" />
  <metadata
     id="metadata4">
    <rdf:RDF>
      <cc:Work
         rdf:about="">
        <dc:format>image/svg+xml</dc:format>
        <dc:type
           rdf:resource="http://purl.org/dc/dcmitype/StillImage" />
        <dc:title />
      </cc:Work>
    </rdf:RDF>
  </metadata>
  <g
     id="layer1"
     inkscape:groupmode="layer"
     inkscape:label="Layer 1">
    <text
       id="text2885"
       y="128.33766"
       x="64.69754"
       style="font-style:normal;font-variant:normal;font-weight:normal;font-stretch:normal;line-height:0%;font-family:'Liberation Sans',Arial,sans-serif;writing-mode:lr-tb;text-anchor:middle;display:block;fill:#000000;fill-opacity:1;stroke:none;stroke-width:1pt;stroke-linecap:butt;stroke-linejoin:miter;stroke-opacity:1"
       xml:space="preserve"><tspan
         y="128.33766"
         x="64.69754"
         id="tspan2886"
         sodipodi:role="line"
         style="font-size:6px;line-height:1.1">Original Image</tspan></text>
    <text
       id="text2888"
       y="124.67367"
       x="210.72394"
       style="font-style:normal;font-variant:normal;font-weight:normal;font-stretch:normal;line-height:0%;font-family:'Liberation Sans',Arial,sans-serif;writing-mode:lr-tb;text-anchor:middle;display:block;fill:#000000;fill-opacity:1;stroke:none;stroke-width:1pt;stroke-linecap:butt;stroke-linejoin:miter;stroke-opacity:1"
       xml:space="preserve"><tspan
         y="124.67367"
         x="210.72394"
         id="tspan2889"
         sodipodi:role="line"
         style="font-size:6px;line-height:1.1">Traced Image / Output Path - Simplified</tspan><tspan
         y="130.67368"
         x="210.72394"
         id="tspan2891"
         sodipodi:role="line"
         style="font-size:6px;line-height:1.1">(384 nodes)</tspan></text>
    <image
       sodipodi:absref="/home/gellert/workspace/inkscape/documentation/tutorials/tracing/oldguitar.jpg"
       xlink:href="oldguitar.jpg"
       y="0.058779296"
       x="23.024101"
       id="image1855"
       height="115.89471"
       width="83.346848" />
    <path
       id="path1856"
       d="m 168.72866,89.6416 c 0,-8.7707 0,-17.5414 0,-26.3121 2.75446,0.2145 -1.46342,-0.4831 -0.009,-2.7448 0.0132,-9.1739 0.0265,-18.3478 0.0397,-27.5217 3.1445,-0.3823 3.52332,-0.8125 5.14935,-0.1402 -0.10115,-0.5427 6.61182,1.0626 4.27203,-1.0069 2.32269,0.0503 5.04135,-0.3931 1.88649,1.1706 3.75639,-0.6727 7.61049,-2.5829 11.13439,-0.3497 5.33181,0.0974 3.03098,0.0377 1.59823,-1.05 3.17406,-0.4289 -6.19123,-0.1383 -1.76146,-0.0861 2.07778,-2.8008 9.63618,3.8847 6.91694,-3.2196 1.56417,-0.4928 1.39065,6.1266 2.89328,0.6986 2.55716,-3.7326 2.40531,3.4933 6.37402,1.604 1.06892,-3.7011 -4.17201,-6.6833 -7.12023,-8.1657 2.80393,1.6844 5.2565,0.7929 2.16877,-2.0231 -0.33715,-3.1942 5.23326,3.8362 7.99702,3.0237 4.33428,1.7428 -7.33227,2.6441 -0.50564,2.8554 1.09031,1.7046 4.83295,6.0099 3.94698,0.6832 -0.0359,-1.8188 -0.2334,-10.1271 -1.48917,-4.7928 -3.4581,-0.8792 -5.05848,-4.8368 -7.71113,-4.1558 -0.61753,-1.4771 1.15652,-1.504 1.73633,-2.5667 -0.81514,2.3236 6.498,3.3484 5.91126,0.8523 -1.42749,-2.1291 -5.78542,1.7501 -4.9486,-1.7724 4.53793,0.3776 2.67563,-2.6643 0.34802,-2.3439 -1.49606,1.8349 -9.88783,3.4427 -8.61908,2.425 1.63425,-1.7066 7.28023,-1.2364 9.99325,-4.7141 4.78948,-2.7554 9.74927,-5.3947 15.43604,-3.8839 1.82528,-1.8037 -1.43722,-7.1732 2.88105,-5.9164 5.08796,0.1172 10.30915,-0.5425 15.28632,0.3304 3.71068,-0.4323 11.95736,-2.1157 9.37739,4.9761 0.0729,36.8194 0.0977,73.6398 -0.13981,110.4586 -27.68088,0 -55.36176,0 -83.04265,0 0,-8.7706 0,-17.5413 0,-26.312 z m 6.98557,25.1153 c 0.81648,-2.9539 -2.27266,2.0792 0,0 z m 2.35533,-1.6346 c -0.10265,-2.4652 -1.08517,2.9469 0,0 z m 1.1852,-0.1282 c -0.59229,0.2193 0.41926,1.4265 0,0 z m -2.31308,-0.5137 c 1.58174,-4.7735 -2.71141,2.9575 0,0 z m -1.80185,0.2032 c 1.24842,-4.6 5.41598,-9.6715 10.04902,-9.8927 1.45767,-2.0723 -0.47827,-5.0224 -0.0778,-7.2078 -4.91976,-4.3494 -3.52871,8.5513 -7.62329,10.6836 -2.95016,0.7837 -3.96182,5.9937 -2.34792,6.4169 z m 55.06414,-3.0573 c -2.48505,-4.848 0.75345,4.4426 0,0 z m -1.72756,-0.1674 c -1.38973,-1.4084 0.42269,1.8833 0,0 z m -1.32903,-1.9943 c -2.34712,-1.7137 0.90871,2.6227 0,0 z m 2.27675,-1.5317 c -1.46193,-2.6922 -1.86081,5.2332 0,0 z m -2.59603,-1.1969 c -1.883,-3.2236 -0.51299,1.4574 0,0 z m 2.43349,-0.3594 c -0.61841,-0.6675 -0.68866,1.0178 0,0 z m -7.48826,-2.4208 c -2.82887,-2.0035 -1.6937,0.9698 0,0 z m 6.02436,-0.2025 c -1.75523,-0.1918 0.57701,0.536 0,0 z m -8.57421,-0.5952 c -3.11401,-1.1918 -2.11327,-3.8722 -3.74629,-4.1138 2.63004,0.9138 2.09822,2.1237 4.87366,1.9889 3.47968,2.7721 6.59536,0.7933 10.03924,1.5997 -2.31041,-2.3139 -8.49889,0.4595 -11.59027,-3.247 -7.34511,-3.8721 -13.33702,-10.5421 -21.90265,-11.7623 -3.11767,-1.2999 -9.60566,-4.1816 -9.70188,-6.4829 3.78886,-4.3183 -6.21649,-0.6923 -7.04405,1.3564 -4.07451,3.4256 2.14678,9.5613 3.32639,8.7065 1.30336,-2.1975 1.88848,0.2974 0.24548,0.7602 0.88102,-0.7859 6.31019,2.681 2.6044,-1.1747 -2.47954,-1.5307 -3.6681,-1.4881 -2.14297,-2.9918 2.86385,-0.736 4.6803,6.9088 4.41472,2.2465 1.82839,1.796 5.58572,4.5326 5.56414,0.7408 0.51362,0.6255 4.94065,3.5802 8.0983,4.8603 1.01424,-2.9318 3.15866,2.6987 -0.0176,0.955 3.19717,2.9819 9.69797,2.899 13.90143,5.4353 1.06049,-0.0726 2.2336,1.7498 3.07798,1.1229 z m -5.77955,-3.4556 c 0.75681,-1.1843 0.75683,1.1842 0,0 z m -1.21673,-0.6084 c -2.06763,0.7258 -4.66393,-3.1396 -3.16205,-1.996 -1.02256,0.6418 5.86334,2.4934 3.16205,1.996 z m -4.94544,-1.2425 c -2.88679,-0.6799 -0.26979,-2.4002 0.5844,0.2888 l -0.58439,-0.2888 z m -2.35502,-1.3251 c 0.39455,-1.4457 0.63889,1.1304 0,0 z m 2.35743,-0.0672 c 2.1648,-0.3461 -0.21078,0.5398 0,0 z m -21.8253,-4.4956 c 0.76742,-1.1911 0.83765,0.6394 0,0 z m 2.53845,-3.0729 c -0.17908,-1.6444 1.9071,1.7158 0,0 z m 1.46679,11.7793 c 2.70391,-0.8292 6.89233,-1.7526 1.49961,-2.0428 -2.63984,-1.7777 -6.75586,0.0686 -3.54043,2.5872 l 0.87772,-0.1369 z m 12.42077,-3.5749 c -1.67168,-2.7417 -4.27407,-0.3405 0,0 z m -4.25859,-1.043 c -0.75719,-1.184 -0.75645,1.1843 0,0 z m 1.44489,-0.3802 c -1.08551,-1.1965 -0.85795,1.4722 0,0 z m -7.5286,-2.9658 c -1.13992,-1.2467 -1.13992,1.2467 0,0 z m 23.57437,-8.213 c -0.93279,-0.978 -0.0961,1.0482 0,0 z m -3.34604,-0.6084 c -1.39872,-1.0818 -0.0197,1.0391 0,0 z m 13.26922,-0.8137 c -1.10826,-1.392 0.82576,2.2445 0,0 z m -14.50116,0.2395 c -2.96722,-1.6682 -0.74397,0.5748 0,0 z m 3.51335,-0.6605 c -1.20648,0.1749 -0.19513,-0.1327 0,0 z m -5.62744,-0.2862 c -1.6111,-1.1112 0.34112,1.0483 0,0 z m 17.49067,-0.7351 c 0.47254,-1.5234 2.41699,-3.7854 0.99857,-3.743 3.68358,-0.7804 0.84726,1.2574 0.412,3.5428 2.48009,-0.4557 3.82022,-10.5624 2.56337,-8.5343 -0.92431,7.5866 -0.4323,-5.934 -2.76116,-5.1313 0.72743,1.5414 -6.21961,1.8822 -4.48278,-0.0095 -0.0914,-2.7103 -2.97347,-7.4757 -6.2289,-9.9499 3.28738,0.8798 6.37833,6.5867 7.96002,9.9594 1.43298,-3.8428 -6.32797,-9.9435 -5.99657,-10.5339 2.4014,1.4483 8.09444,7.021 3.52947,1.4083 -0.98658,-1.7442 -6.26635,-3.9381 -1.29966,-2.1404 1.78101,1.6662 7.31327,7.6294 3.17744,2.1807 -0.75721,-3.7176 -10.22222,-3.6844 -4.74854,-6.8283 0.78956,-3.1508 4.50574,-10.265 3.82303,-11.2163 -3.19428,1.4764 3.01694,-3.6766 -0.71243,-2.201 -2.68938,-0.5772 -3.57224,0.4801 -0.40993,0.223 1.29089,2.7852 -3.90633,3.5883 -3.25946,0.0106 -7.35193,-0.0811 -7.04604,8.5409 -6.93946,13.745 -3.06074,5.0066 -12.87548,2.877 -15.63246,7.7654 -0.73717,5.201 2.88008,11.9086 7.87561,5.8127 3.27347,-2.1777 5.767,-6.3269 8.64987,-7.8432 2.81273,0.0528 1.67103,2.6931 5.79704,3.752 2.35205,1.1544 5.09115,6.0886 1.84214,4.5694 1.24712,3.4625 3.76173,5.6482 3.50042,9.5396 1.9138,-0.6529 1.44151,4.9861 -0.14137,0.882 -0.1533,0.9626 1.93216,5.404 2.48374,4.7402 z m -0.39924,-2.199 c -0.65258,-1.5847 2.33,0.1457 -1e-5,0 z m 0.095,-2.4071 c 1.13736,0.349 0.27833,-0.003 0,0 z m 3.52338,0.2109 c -0.20112,-1.884 0.91342,0.7243 0,0 z m -4.74011,-6.1341 c 0.89253,-1.0169 1.41003,0.5782 0,0 z m 3.06587,-1.638 c 0.12998,-1.3219 0.28103,1.1382 0,0 z m -11.43097,-8.9989 c -0.0639,-1.2265 1.24961,1.1452 0,0 z m -1.23465,-3.4884 c -1.24896,-1.4541 2.21286,1.4591 0,-1e-4 z m 3.51604,-6.3978 c 0.54298,-1.4587 0.54276,1.459 0,0 z m -1.30988,-0.0423 c -0.20141,-1.6682 1.50547,0.7565 0,0 z m 3.135,-4.5025 c 0.76735,-1.1912 0.83767,0.6396 0,0 z m 0,-2.1292 c 0.9069,-1.8387 0.61699,1.3848 0,0 z m 0.60837,-0.7783 c 0.75664,-1.1843 0.75696,1.1838 0,0 z m -0.56035,-0.6084 c 0.21069,-1.7707 0.21089,1.7716 0,0 z m -4.80526,-2.2442 c 1.84823,-2.6845 1.89729,0.7997 1e-5,0 z m 2.3284,-0.7217 c 1.26224,-2.7558 0.0463,2.0337 0,0 z M 207.15908,78.977 c 2.0886,-1.9014 0.1466,-2.9283 0.22257,-2.5675 0.63937,-6.9426 -1.89296,5.8101 -1.95079,-0.1715 1.20559,-4.798 -2.05802,-2.6837 -1.72828,-0.7798 -2.96209,-2.1568 3.57595,5.7131 3.4565,3.5188 z m -0.33665,-2.2633 c 0.16881,-2.0766 0.16878,2.0766 0,0 z m -2.30127,-0.507 c -1.37964,-1.5449 1.58802,0.2668 0,0 z m 14.09393,0.507 c -0.75701,-1.1842 -0.75661,1.1844 0,0 z m -16.12182,-2.6995 c -0.85158,-2.6911 -0.73357,-2.7597 0.46709,-1.7112 2.68923,-2.5671 -2.16798,-0.2157 0.26058,-3.1166 3.53722,-0.0621 1.92072,5.5693 2.86391,0.2552 0.91564,-2.7922 2.10122,-8.1378 -2.22276,-4.227 -3.65083,0.7086 -3.43227,7.8691 -1.36882,8.7996 z m -0.86324,-4.5249 c -0.73774,-3.3126 1.57022,1.8775 0,0 z m 17.10217,4.0411 c 2.7381,-4.0111 -1.05108,-4.0451 -1.59305,-2.6916 -0.66762,-2.2345 7.11662,-3.3554 0.70137,-3.9655 -2.0124,2.3647 -0.83327,4.0292 0.11549,6.6778 -0.91217,0.7971 0.76665,1.1157 0.77619,-0.0207 z m -1.13105,-5.2325 c -0.62875,-2.2868 1.50975,1.2331 0,0 z m -3.97342,4.8479 c -0.59231,0.2191 0.41923,1.4264 0,0 z m 8.02922,0.526 c -0.75689,-1.1842 -0.75674,1.1843 0,0 z m -13.9972,-0.9885 c -0.45012,-1.9539 -0.28463,2.6786 0,0 z m 12.64319,-0.1479 c 1.18441,-2.4896 -0.86805,-6.2035 -0.25628,-2.1288 -0.75538,0.2889 -0.81308,3.8481 0.25628,2.1288 z m 1.65821,-0.7259 c -0.85623,-1.7715 -1.05604,3.1594 -1e-5,0 z m -5.31942,-3.9348 c -0.96451,-1.3014 0.42421,-5.4743 -1.56684,-1.8682 -0.52882,-0.4402 -2.06265,1.7085 -1.05288,-1.9318 0.68488,-1.8549 -3.4272,-5.9429 -1.55907,-1.7433 1.44242,2.2202 0.13203,7.7318 2.35708,5.6768 -1.18749,3.5905 2.1257,-1.6389 0.66305,2.126 0.80556,-0.2966 0.86965,-1.5796 1.15866,-2.2595 z m -7.88484,1.2019 c -3.63301,-1.9476 1.4798,2.2162 0,0 z m 2.70984,-0.2718 c -1.61108,-1.1112 0.3411,1.0483 0,0 z m 18.23084,-1.5741 c -1.47849,-3.1109 0.31491,-6.3916 -1.21467,-7.4922 -2.92563,-4.3955 -3.05211,7.2913 -1.16606,3.8179 -3.3737,-3.8339 2.33548,-4.7198 0.47432,-2.5331 -1.29537,-0.2638 -0.37655,2.2208 0.36966,1.1837 -0.55627,1.0631 1.19879,7.0356 1.53675,5.0237 z M 208.10099,67.62 c -0.64151,-1.6953 -1.231,1.1374 0,0 z m 2.30109,-0.6728 c -1.49352,-0.005 0.77227,-2.1839 -1.52092,-0.2717 -0.0945,0.7984 1.25403,0.778 1.52092,0.2717 z m 1.9902,0.0534 c 1.71814,-3.8744 -1.74798,-0.0716 0,0 z m -25.30249,-1.6939 c -1.59584,-1.5938 0.19576,1.5587 0,0 z m 3.67127,0.118 c 1.97357,-1.1461 -1.26347,-0.6007 0.99871,-1.9947 -2.40156,-0.1927 -5.70227,2.9445 -0.99871,1.9947 z m 4.29761,-0.6896 c -0.35752,-4.7055 -1.61696,-2.4873 -0.67336,0.6176 0.37737,0.3379 0.64294,-0.4147 0.67336,-0.6176 z m 13.82249,0.4195 c -2.59025,-1.3982 0.006,1.3845 0,0 z m 1.66002,-0.2831 c -0.0721,-1.416 -1.13125,1.0181 0,0 z m -16.86929,-0.9406 c -1.32461,-1.5238 -1.18156,2.2562 0,0 z m -9.75533,-0.6775 c -1.10527,-0.5926 -0.30943,2.7328 0,0 z m 25.43542,0.1521 c -1.16876,-3.7259 -0.5442,3.649 0,0 z m 6.52544,0.0582 c -1.13706,0.3491 -0.27867,-0.0029 0,0 z m -5.01906,-0.1342 c 1.98405,-2.2801 -0.92069,0.1369 0,0 z m 9.38393,-0.1423 c -0.28181,-1.8087 -1.40854,1.1273 0,0 z m -30.98373,-0.8463 c 3.72779,-2.0055 -1.82836,-2.4116 -1.17687,-1.4449 0.2295,-0.0869 0.0452,4.1564 1.17687,1.4449 z m -13.53364,0.3134 c 2.24742,-1.0338 4.70585,-2.709 0.0477,-1.6956 -3.0621,0.0125 -4.51116,2.5428 -0.0477,1.6956 z m 0.024,-0.9725 c 0.13,-1.3216 0.28103,1.1386 0,0 z m 10.55171,0.4307 c -1.3538,-1.5309 0.64199,2.2012 0,0 z m -6.31712,0.3044 c -0.72862,-1.2151 -0.48497,1.1312 0,0 z m 3.64098,-0.5975 c -0.66787,-1.5166 -1.81087,2.3739 0,0 z m 9.74318,0.4526 c -3.24254,-1.0866 -2.47726,1.3281 0,0 z m 22.35765,-0.1592 c 1.92663,0.1604 -2.11302,-0.7112 -0.32564,0.1117 l 0.32563,-0.1117 z m 2.50374,0.3975 c -2.5977,-0.262 0.43208,0.4989 0,0 z m 12.45492,-2.2987 c 3.0834,-4.3634 4.75071,-7.9892 5.0927,-11.0344 1.17279,-4.2628 -2.98175,-10.4554 -6.80168,-9.7746 3.29516,0.3798 2.3063,2.3156 4.50907,3.5602 1.01438,2.6913 -0.36629,3.8994 0.73164,4.9601 1.37965,2.3158 1.07028,0.8374 -0.8808,1.7943 -0.29881,1.1934 -1.26878,-2.2444 -1.94306,1.2884 -3.4102,-0.1765 0.49449,-1.4398 0.81908,-3.3701 2.04179,3.2768 0.0889,-6.0762 -1.56045,-4.654 1.22205,-1.6707 -1.83576,-0.5574 -1.27006,-2.4078 -1.77908,4.0034 0.22364,-2.8467 -1.51561,1.1728 -1.75185,3.045 -3.33404,8.0441 -0.12417,5.3091 2.17143,-4.9224 1.3081,-0.357 -0.003,2.2973 -1.3679,-1.0398 -0.94744,-1.4011 -2.85773,0.1684 -0.89221,1.737 -2.11151,5.3432 0.12001,2.0971 -0.31445,2.0709 1.46612,1.8815 1.67965,1.7233 0.19465,-2.0982 4.08128,-0.7968 2.25078,1.2864 -2.966,-2.2196 -0.0471,4.4346 -3.3832,0.7637 -1.5836,-1.0251 0.0612,2.2429 2.14024,2.3327 3.26013,-0.032 0.45958,7.4563 2.99657,2.4871 z m -1.81473,-3.27 c 0.42912,-2.0047 1.03504,1.9234 0,0 z m -1.4328,-0.3042 c 0.757,-1.1842 0.75665,1.1843 0,0 z m 2.48291,-1.0966 c 1.87592,-2.5675 2.70878,2.1899 0,0 z m 2.68825,-0.5764 c 1.80744,-1.7174 -1.95282,0.1452 -0.60837,-2.1293 0.45301,-4.219 0.95575,0.9504 0.80925,0.2375 0.30436,-2.8909 2.38073,1.3922 0.76091,0.6875 0.6496,0.2972 -0.74803,2.6507 -0.96179,1.2043 z m -2.1293,-1.3688 c 1.09176,-2.0789 0.68058,1.9655 0,0 z m -0.30419,-1.1988 c 0.6543,-1.1027 0.84685,0.673 0,0 z m -5.17115,-1.9772 c 0.76723,-1.1913 0.83781,0.6394 0,0 z m 5.06115,-1.8432 c 0.10206,-1.6708 0.90107,1.5762 0,0 z m 4.98738,-1.7985 c -3.2263,-3.183 1.9665,-2.4117 0,0 z m -5.02948,0.4298 c 1.40221,-0.1619 0.23956,-0.1484 0,0 z m -2.58557,-2.8898 c 1.64715,-1.3933 -0.39611,1.6129 0,0 z m 2.43349,0.1521 c 1.40623,-1.3053 0.59335,1.2116 0,0 z m -58.95497,17.1307 c -1.75522,-0.1918 0.57704,0.5361 0,0 z m 15.9602,-1.2149 c -3.42654,-0.7643 0.9875,2.6565 1e-5,0 z m -17.08188,0.8144 c -1.58783,-1.1732 -0.33897,1.2606 0,0 z m 13.06621,-0.8593 c -2.9534,-0.0402 0.01,1.8913 0,0 z m 1.68679,0.5551 c -1.12735,-1.06 -0.82024,0.6175 0,0 z m -4.03624,-0.2108 c -2.59762,-0.2619 0.4319,0.4988 0,0 z m 11.39373,0.0029 c -1.75522,-0.1918 0.57701,0.5361 0,0 z m 22.07242,-0.8822 c -1.51602,-0.3817 -0.11727,1.7911 0,0 z m -22.55404,-0.9567 c -0.59225,0.2188 0.41925,1.4265 0,0 z m -0.48797,-0.0824 c -0.68732,-1.2477 -1.3182,1.2668 0,0 z m 22.81391,-0.2947 c -0.92933,-0.6727 -1.37747,1.0628 0,0 z m 13.26376,-0.5355 c -0.59232,0.2189 0.41939,1.4265 0,0 z m -0.87181,-0.5967 c -2.32079,-1.309 1.04817,1.8209 0,0 z M 223.986,54.9818 c -2.42926,-1.5096 2.13925,2.5308 0,0 z m -26.20764,-0.4737 c -1.40187,-0.162 -0.23995,-0.1483 0,0 z m 26.77562,-0.6314 c 0.53483,-2.5634 -1.74115,2.3702 0,0 z M 198.8342,53.6075 c 1.36429,-1.3955 -3.43116,1.1175 0,0 z m 2.77501,-1.626 c -1.14175,0.3082 0.92995,2.0539 0,0 z m -2.462,-1.8334 c -0.75195,-2.0269 -1.78742,1.7065 -1e-5,0 z m 2.19558,-1.4749 c -0.69601,0.6257 0.80442,1.9231 0,0 z m -0.67466,0.6637 c -0.7287,-1.2151 -0.4849,1.1314 0,0 z m -2.31612,-0.7412 c -1.40393,-1.0998 -0.43669,1.429 0,0 z m 2.92448,-2.3195 c -2.70575,-4.1022 -2.26732,2.3853 0,0 z m -17.64276,-0.8936 c -0.72832,-1.2153 -0.48534,1.131 0,0 z m 16.56606,-1.4153 c -2.58868,-1.4184 1.21644,1.8388 0,0 z m 10.40373,-1.0943 c -0.53567,-0.1974 0.33281,2.1308 0,0 z m -11.45631,-0.2461 c -1.20651,0.1749 -0.19509,-0.1328 0,0 z m 1.1559,-0.347 c 1.50165,-2.7856 -2.36989,1.4451 -1e-5,0 z M 175.7249,41.8844 c -0.73174,-1.6969 -0.33336,1.6119 0,0 z m 34.57251,-1.4507 c -0.38689,-0.7622 0.17478,4.2672 0,0 z m 20.86342,0.7924 c -0.69353,-1.7896 -1.04196,0.7084 0,0 z m -31.2501,-0.7154 c 3.49093,-3.39 -3.25264,1.0101 0,0 z m -30.07001,-4.3355 c -0.38714,-0.7452 0.17519,4.2434 0,0 z m 18.3558,-0.2583 c -0.6887,-0.6702 -0.66052,1.5729 0,0 z m 53.04316,-5.9875 c 1.4993,-5.2069 1.19543,-14.2319 -2.24393,-16.2761 2.87865,4.9483 1.25859,10.4131 -0.65976,15.3971 0.23106,3.4971 3.01472,6.8935 2.90369,0.879 z m -53.04316,2.6774 c -3.1135,-1.1972 -1.74845,0.8869 0,0 z m 22.50972,-1.3689 c -0.3701,-1.4425 -0.60457,1.5134 0,0 z m -8.21766,-1.4628 c -0.71041,-3.9497 -0.72492,2.9125 0,0 z m 9.13023,-8.8796 c -2.077,-1.5982 0.68868,1.5223 0,0 z m 0.76045,-0.7605 c -0.93298,-0.9775 -0.0958,1.0483 0,0 z m -0.91255,-1.2166 c -0.93284,-0.978 -0.096,1.0482 0,0 z m 15.66556,-3.346 c -1.89531,-2.162 -3.08542,-4.9365 -2.38884,-8.0391 -2.37384,-1.9045 -9.40306,-2.0434 -5.67832,1.8477 1.32042,-0.6548 5.11539,7.1935 8.06716,6.1914 z m 12.40507,-5.3391 c -3.60177,-1.6282 -0.8041,1.6877 0,0 z m -3.77272,-0.1466 c -4.12668,-1.3216 -3.64168,1.4306 0,0 z m 1.81948,-1.649 c 7.46818,1.0245 -3.66085,-2.2752 -2.46696,0.2065 0.79518,-0.2777 1.64299,-0.224 2.46696,-0.2065 z m 4.04411,-1.5215 c -2.37677,-2.4059 -8.62026,-2.5656 -2.24863,-0.6056 0.39329,-0.0295 2.85911,2.1469 2.24863,0.6056 z m -5.98842,-0.9077 c -1.28841,0.4219 -0.73451,2.3512 0,0 z m 6.70175,-0.9039 c -1.04815,-2.6216 -8.70215,-2.745 -2.67357,-0.784 0.73419,-0.2943 3.07351,2.6033 2.67357,0.784 z m -67.30739,27.0142 c -1.10286,-2.5711 1.28508,0.2321 0,0 z m 1.19773,-0.019 c -0.0208,-1.7459 0.97563,0.2859 0,0 z m 6.96284,-0.6418 c 0.51246,-2.7979 6.74799,-0.1638 1.36164,-0.0215 l -1.36163,0.0215 z m 1.4086,-0.58 c -1.75529,-0.1916 0.57711,0.5359 0,0 z m -7.35748,0.2078 c 0.7568,-1.1843 0.75681,1.1842 0,0 z m -2.1293,-0.5662 c 1.63764,-0.6453 2.27871,0.9821 0,0 z m 4.41609,-0.0334 c -4.06065,0.3673 -3.98249,-2.9482 -3.61266,-5.3225 -0.85001,0.7934 2.03915,-5.4216 -1.30903,-4.5225 1.11184,-3.0369 -2.37571,0.1165 -2.36063,-2.7692 -0.59194,2.7825 -0.0659,-2.5109 -2.71925,-0.4064 -1.66892,-1.9045 -0.59154,-10.2045 0.69801,-6.456 1.16333,-2.5708 5.0397,-2.3128 7.74179,-1.6187 2.20846,0.7976 8.5451,-1.6254 5.13427,0.6123 0.21344,0.9374 8.7281,-1.0243 3.07422,0.1176 -2.39069,0.1735 -3.85919,2.1908 -1.78239,2.615 -2.53716,1.9352 -4.26166,-2.363 -5.04579,2.0574 -3.02597,1.6255 0.37929,4.8537 0.22159,7.8246 -2.00395,-5.4508 -0.16259,3.9007 1.19329,5.0849 2.82965,2.4836 2.28639,3.4021 -1.23342,2.7835 z m -2.28679,-2.4422 c -1.40639,-1.3053 -0.59318,1.2116 0,0 z m -2.65889,-15.8176 c 2.5874,0.2627 0.008,-2.7273 -0.6174,-1.6731 1.61624,1.2249 -2.50514,2.8321 0.6174,1.6731 z m 2.29372,-0.9887 c -1.41653,-3.448 0.22411,3.4343 0,0 z m 4.94357,-0.1761 c -3.49503,0.0671 0.89611,1.2169 0,0 z m -8.53282,-0.3383 c -1.21915,-2.118 -1.51624,1.4335 0,0 z m 3.40307,-1.4424 c -1.75529,-0.1917 0.57702,0.5357 0,0 z m 11.42598,21.2861 c 3.41139,-0.1535 -0.16195,0.4318 0,0 z m -16.83612,-1.8748 c 0.88977,-2.9039 1.31909,2.9776 0,0 z m 33.71842,0.459 c -2.24083,-2.2216 3.39543,1.2765 0,0 z m -13.24811,-0.1186 c -2.46536,-4.0691 5.99713,-4.0408 2.6029,-2.2675 -0.85575,4.7982 -1.14296,-2.3681 -1.38713,2.3546 l -0.46439,0.141 z m 4.85767,-0.8872 c -0.77484,-2.831 1.55475,0.877 0,0 z m -16.01194,-1.4479 c -1.04273,-3.2506 1.43501,2.3992 0,0 z m 19.62033,0.4483 c 0.95811,-3.3778 6.34525,0.7252 1.38504,-0.7214 -0.44178,0.1477 -0.81052,1.123 -1.38504,0.7214 z m -2.39527,-0.8941 c 1.56324,-3.9796 1.93323,2.8828 0,0 z m -23.85341,-0.0824 c -2.03019,-3.7418 1.86288,1.1298 0,0 z m 37.26075,-0.4542 c 4.27859,-0.1742 -0.7713,0.3867 0,0 z m -42.30136,-1.5242 c -1.05807,-3.2012 1.69428,0.9275 0,0 z m 28.013,-1.3912 c -4.11512,-4.0914 4.64263,1.8262 1.57458,1.5727 -0.60327,-0.441 -1.07052,-1.0297 -1.57458,-1.5727 z m -23.76301,-0.079 c -2.02336,-2.2008 4.73649,-0.0507 -0.009,0.3295 z m -3.64162,-0.659 c -0.96061,-3.0865 1.1649,0.37 0,0 z m 35.8432,-1.0141 c -0.0637,-1.2262 1.24956,1.1456 0,0 z m -33.00413,-0.7424 c 0.39458,-1.4457 0.63886,1.1306 0,0 z m 18.80053,-2.3315 c -2.55019,-3.0373 5.4735,-3.9953 0.22348,-1.5897 -0.1025,3.9055 1.41289,-3.7593 4.17014,-0.0915 2.9314,0.3727 -5.29319,-0.0492 -2.39953,0.6487 5.70271,-1.1224 0.14912,4.0014 -1.99409,1.0325 z m 4.79139,0.6689 c 0.30528,-0.7437 2.48048,1.1389 0,0 z M 178.91888,18.31 c -0.0639,-1.2264 1.24969,1.1455 0,0 z m 18.40321,-0.6216 c -3.21767,-3.2032 0.91154,-1.5101 0.3042,0.3174 l -0.21483,-0.0932 -0.0894,-0.2242 z m 1.59699,-1.1007 c -0.61113,-1.4182 5.35573,0.9224 0.62595,0.1051 z m -1.21674,-3.6503 c -1.50669,-1.5795 2.54412,0.6254 0,0 z m -3.27,-0.8512 c -6.2028,-1.2656 0.18466,-0.8527 2.25604,0.2398 -0.75976,0.0137 -1.50748,-0.1368 -2.25604,-0.2398 z m -5.01906,-1.667 c 0.65393,-1.1026 0.84716,0.6728 0,0 z m 1.9075,0.1024 c 1.50075,-0.5195 0.21717,0.6259 0,0 z M 169.9454,9.1845 c 2.20666,-1.1364 -0.50565,1.3663 0,0 z m 18.16704,0.1188 c -4.61427,-0.2578 -1.89499,-2.3707 0.25373,-0.4972 -0.2869,-1.5971 3.16419,-0.1293 -0.25373,0.4972 z m -11.0884,-0.9111 c 1.50118,-0.5199 0.21704,0.6263 0,0 z m 4.95398,-0.5004 c 1.39861,-2.6223 0.52171,2.3156 0,-10e-5 z m -6.77908,0.1962 c 1.50109,-0.5198 0.21703,0.6263 0,0 z m 3.95624,-1.0253 c 0.57594,-1.8572 1.44191,1.8571 0,0 z M 169.55946,5.814 c 0.88596,-1.6927 -0.18275,1.9301 0,0 z m 1.98035,-0.2695 c -2.0351,0.7421 -4.42049,-3.3555 -1.39732,-2.3097 -1.65593,1.8686 6.0765,0.1224 1.3155,1.5497 0.78739,-0.0983 0.72619,2.0665 0.0818,0.76 z M 173.678,4.4379 c 1.50091,-0.5198 0.21718,0.6261 0,0 z m 3.00751,-1.033 c 0.2108,-1.7729 0.21078,1.7727 0,0 z"
       inkscape:connector-curvature="0" />
  </g>
</svg>
